<?xml version="1.0" encoding="UTF-8" standalone="no"?>
<!-- Created with Inkscape (http://www.inkscape.org/) -->

<svg
   xmlns:dc="http://purl.org/dc/elements/1.1/"
   xmlns:cc="http://creativecommons.org/ns#"
   xmlns:rdf="http://www.w3.org/1999/02/22-rdf-syntax-ns#"
   xmlns:svg="http://www.w3.org/2000/svg"
   xmlns="http://www.w3.org/2000/svg"
   xmlns:sodipodi="http://sodipodi.sourceforge.net/DTD/sodipodi-0.dtd"
   xmlns:inkscape="http://www.inkscape.org/namespaces/inkscape"
   width="96.100006mm"
   height="76.099991mm"
   viewBox="0 0 96.100008 76.09999"
   version="1.1"
   id="svg8"
   inkscape:version="0.92.4 (f8dce91, 2019-08-02)"
   sodipodi:docname="front.svg">
  <defs
     id="defs2" />
  <sodipodi:namedview
     id="base"
     pagecolor="#ffffff"
     bordercolor="#666666"
     borderopacity="1.0"
     inkscape:pageopacity="0.0"
     inkscape:pageshadow="2"
     inkscape:zoom="7.2407734"
     inkscape:cx="74.759673"
     inkscape:cy="144.65784"
     inkscape:document-units="mm"
     inkscape:current-layer="layer1-5-8"
     showgrid="true"
     showguides="true"
     inkscape:guide-bbox="true"
     fit-margin-top="0"
     fit-margin-left="0"
     fit-margin-right="0"
     fit-margin-bottom="0"
     inkscape:window-width="1366"
     inkscape:window-height="720"
     inkscape:window-x="0"
     inkscape:window-y="24"
     inkscape:window-maximized="1"
     inkscape:snap-global="false">
    <inkscape:grid
       type="xygrid"
       id="grid10"
       units="mm"
       spacingx="1"
       color="#6798ff"
       opacity="0.1254902"
       spacingy="1"
       originx="3.0500048"
       originy="-16.950005" />
  </sodipodi:namedview>
  <metadata
     id="metadata5">
    <rdf:RDF>
      <cc:Work
         rdf:about="">
        <dc:format>image/svg+xml</dc:format>
        <dc:type
           rdf:resource="http://purl.org/dc/dcmitype/StillImage" />
        <dc:title />
      </cc:Work>
    </rdf:RDF>
  </metadata>
  <g
     inkscape:label="Layer 1"
     inkscape:groupmode="layer"
     id="layer1"
     transform="translate(3.0500046,-203.95)">
    <g
       transform="matrix(0.075,0,0,0.075,39.999999,279.14272)"
       id="layer1-2"
       inkscape:label="Layer 1">
      <g
         style="fill:#808000"
         transform="matrix(9.7818408,0,0,9.7818408,-641.27247,-868.31945)"
         id="layer1-5">
        <text
           class="svg-all"
           id="text914"
           y="101.85458"
           x="54.277439"
           style="font-style:normal;font-variant:normal;font-weight:bold;font-stretch:normal;font-size:6.70277977px;line-height:125%;font-family:'Fira Code';font-feature-settings:normal;text-align:end;letter-spacing:0px;word-spacing:0px;writing-mode:lr-tb;text-anchor:end;fill:#808000;fill-opacity:1;stroke:none;stroke-width:0.26458299px;stroke-linecap:butt;stroke-linejoin:miter;stroke-opacity:1"
           xml:space="preserve"><tspan
             style="font-style:normal;font-variant:normal;font-weight:bold;font-stretch:normal;font-size:6.70277786px;font-family:'Fira Code';-inkscape-font-specification:'Fira Code Bold';text-align:end;text-anchor:end;fill:#808000;stroke-width:0.26458332px"
             y="101.85458"
             x="54.277439"
             id="tspan912" /></text>
        <g
           transform="matrix(0.04770745,0,0,-0.04770328,170.44568,8.6218659)"
           id="layer1-6"
           inkscape:label="Layer 1">
          <g
             style="fill:#808000"
             transform="matrix(9.7818408,0,0,9.7818408,-614.60589,-948.31943)"
             id="layer1-5-1">
            <path
               style="fill:none;stroke:#000000;stroke-width:0.29209918;stroke-linecap:butt;stroke-linejoin:miter;stroke-miterlimit:4;stroke-dasharray:none;stroke-opacity:1"
               d="m -15.88598,-59.788391 v 5.842241 h 8.7625978 v 14.605597 H -15.88598 v 14.605596 h 8.7625978 V -10.12936 H -15.88598 V 4.4762474 h 8.7625978 V 19.081833 H -15.88598 V 33.68743 h 8.7625978 V 48.293027 H -15.88598 v 14.605607 h 8.7625978 v 14.60559 H -15.88598 v 14.60559 h 8.7625978 V 106.71542 H -15.88598 v 14.60559 h 8.7625978 v 14.6056 H -30.490294 v 8.76336 h -14.604322 v -8.76336 h -14.604323 v 8.76336 h -14.604323 v -8.76336 h -14.604321 v 8.76336 H -103.5119 v -8.76336 h -14.60432 v 8.76336 h -14.60432 v -8.76336 h -29.20864 v 8.76336 h -14.60433 v -8.76336 h -14.60432 v 8.76336 h -14.60433 v -8.76336 h -14.60431 v 8.76336 h -14.60432 v -8.76336 h -14.60433 v 8.76336 h -14.60431 v -8.76336 h -23.36692 v -14.6056 h 8.7626 v -14.60559 h -8.7626 V 92.109814 h 8.7626 v -14.60559 h -8.7626 v -14.60559 h 8.7626 V 48.293027 h -8.7626 V 33.68743 h 8.7626 V 19.081833 h -8.7626 V 4.4762474 h 8.7626 V -10.12936 h -8.7626 v -14.605597 h 8.7626 v -14.605596 h -8.7626 V -53.94615 h 8.7626 v -14.605596 h 14.60432 v -8.763356 h 14.60431 v 8.763356 h 14.60433 v -8.763356 h 14.60432 v 8.763356 h 14.60431 v -8.763356 h 14.60433 v 8.763356 h 14.60432 v -8.763356 h 14.60433 v 8.763356 h 29.20864 v -8.763356 h 14.60432 v 8.763356 h 14.60432 v -8.763356 h 14.604317 v 8.763356 h 14.604321 v -8.763356 h 14.604323 v 8.763356 h 14.604323 v -8.763356 h 14.604322 v 8.763356 h 14.604314 z"
               id="path3248"
               inkscape:connector-curvature="0" />
            <g
               transform="matrix(0.17525185,0,0,-0.17525186,-235.09685,-2.0424137)"
               id="layer1-8"
               inkscape:label="Layer 1">
              <g
                 style="fill:#808000"
                 transform="matrix(9.7818408,0,0,9.7818408,-614.60589,-948.31943)"
                 id="layer1-5-8">
                <text
                   class="svg-all"
                   id="text914-8"
                   y="97.78096"
                   x="66.598038"
                   style="font-style:normal;font-variant:normal;font-weight:bold;font-stretch:normal;font-size:8.18122864px;line-height:125%;font-family:'Fira Code';font-feature-settings:normal;text-align:end;letter-spacing:0px;word-spacing:0px;writing-mode:lr-tb;text-anchor:end;fill:#808000;fill-opacity:1;stroke:none;stroke-width:0.17039119;stroke-linecap:butt;stroke-linejoin:miter;stroke-opacity:1;stroke-miterlimit:4;stroke-dasharray:none"
                   xml:space="preserve"
                   transform="scale(0.8178766,1.2226783)"><tspan
                     style="font-style:normal;font-variant:normal;font-weight:bold;font-stretch:normal;font-size:8.18122673px;font-family:'Fira Code';-inkscape-font-specification:'Fira Code Bold';text-align:end;text-anchor:end;fill:#808000;stroke-width:0.17039119;stroke-miterlimit:4;stroke-dasharray:none"
                     y="97.78096"
                     x="66.598038"
                     id="tspan912-9" /></text>
                <rect
                   style="fill:none;fill-opacity:1;stroke:#000000;stroke-width:0.17039119;stroke-linejoin:round;stroke-miterlimit:4;stroke-dasharray:none;stroke-opacity:1"
                   id="rect3477"
                   width="27.847454"
                   height="38.073826"
                   x="151.56378"
                   y="27.759029" />
                <g
                   id="g3501"
                   transform="translate(7.3489352,7.6671483)"
                   style="stroke:#000000;stroke-width:0.17039119;stroke-miterlimit:4;stroke-dasharray:none;stroke-opacity:1">
                  <path
                     id="path911"
                     d="m 159.18882,59.996778 c -0.32452,-1.2e-5 -0.73932,7.61e-4 -1.27149,0.0023 l -2.36742,0.0066 -0.0956,0.05171 c -0.11276,0.06096 -0.22814,0.178236 -0.29029,0.295078 -0.0402,0.07554 -0.0441,0.201492 -0.0445,2.16318 h 0.75321 v -1.756629 h 2.10438 2.10439 v 1.756629 h 0.75327 v -2.05556 l -0.0705,-0.127308 c -0.0847,-0.152818 -0.19997,-0.249272 -0.36056,-0.301559 -0.0802,-0.02612 -0.24132,-0.03446 -1.21489,-0.03449 z m -4.06936,3.19685 v 2.09746 l 0.0517,0.09564 c 0.061,0.112772 0.17819,0.228117 0.29502,0.290277 0.0772,0.04109 0.16271,0.04509 1.10598,0.0515 l 1.0223,0.0069 v 1.529619 1.52962 h -2.58951 -2.58954 l -0.1067,0.0538 c -0.0779,0.0393 -0.1212,0.0826 -0.16051,0.16051 l -0.0538,0.10671 v 1.75274 1.75271 h -0.97956 c -0.91995,0 -0.9873,0.003 -1.10697,0.0477 -0.13611,0.0509 -0.27023,0.1722 -0.34402,0.31105 -0.0402,0.0756 -0.0441,0.20244 -0.0444,2.17212 h 0.7532 v -1.76557 h 2.10439 2.10435 v 1.76557 h 0.75328 v -2.0645 l -0.0709,-0.12808 c -0.039,-0.0704 -0.10895,-0.15955 -0.15543,-0.198 -0.1609,-0.13312 -0.22647,-0.14027 -1.28452,-0.14027 h -0.96415 v -1.5306 -1.53056 h 5.11747 5.11747 v 1.53056 1.5306 h -0.83271 c -0.96107,0 -0.99199,0.005 -1.17716,0.19019 -0.19214,0.19216 -0.1908,0.0798 -0.19021,2.34066 h 0.76529 v -1.76557 h 2.10435 2.10439 v 1.76557 h 0.76525 c 3.8e-4,-2.26082 0.002,-2.1485 -0.19021,-2.34066 -0.19149,-0.1915 -0.18124,-0.19019 -1.47561,-0.19019 h -1.13117 l -0.006,-1.80406 -0.006,-1.80407 -0.0717,-0.0762 c -0.14121,-0.15009 0.0165,-0.14212 -2.80904,-0.14212 h -2.58341 v -1.53057 -1.530596 h 0.96765 c 0.82902,0 0.98402,-0.0056 1.08205,-0.03875 0.15746,-0.05332 0.27145,-0.149783 0.35481,-0.300298 l 0.0705,-0.127308 v -2.073531 h -0.75327 v 1.7746 h -2.10439 -2.10439 v -1.7746 z m -5.50006,12.636396 v 2.08842 l 0.0517,0.0956 c 0.0729,0.13493 0.19567,0.24505 0.33284,0.29862 0.11307,0.0442 0.208,0.046 2.45083,0.0471 2.55487,0.001 2.47905,0.005 2.65354,-0.13915 0.0465,-0.0385 0.11642,-0.12756 0.15543,-0.19801 l 0.0709,-0.12807 v -2.0645 h -0.75328 v 1.76557 h -2.10435 -2.10439 v -1.76557 z m 11.27511,0 c -7.6e-4,2.26082 -0.002,2.1485 0.19021,2.34066 0.20202,0.20203 0.035,0.19019 2.67943,0.19019 2.64439,0 2.47741,0.0118 2.67943,-0.19019 0.19213,-0.19216 0.19079,-0.0798 0.19021,-2.34066 h -0.76525 v 1.76557 h -2.10439 -2.10435 v -1.76557 z"
                     style="fill:none;fill-opacity:1;stroke:#000000;stroke-width:0.17039119;stroke-miterlimit:4;stroke-dasharray:none;stroke-opacity:1"
                     inkscape:connector-curvature="0" />
                </g>
                <ellipse
                   style="fill:none;stroke-width:0.17039119;stroke:#000000;stroke-opacity:1;stroke-miterlimit:4;stroke-dasharray:none"
                   id="path30"
                   cx="73.480301"
                   cy="99.619514"
                   rx="19.168171"
                   ry="19.169846" />
                <g
                   aria-label="XLR"
                   transform="scale(0.99995631,1.0000437)"
                   style="font-style:normal;font-weight:normal;font-size:9.07099438px;line-height:1.25;font-family:sans-serif;letter-spacing:0px;word-spacing:0px;fill:none;fill-opacity:1;stroke:#000000;stroke-width:0.17039119;stroke-miterlimit:4;stroke-dasharray:none;stroke-opacity:1"
                   id="text842">
                  <path
                     d="m 65.265138,69.573588 h 0.961135 l 1.643232,2.458204 1.652091,-2.458204 h 0.961135 l -2.126014,3.175734 2.267748,3.437056 H 69.66333 l -1.860263,-2.812539 -1.87355,2.812539 h -0.965565 l 2.360762,-3.530069 z"
                     style="fill:none;stroke:#000000;stroke-width:0.17039119;stroke-miterlimit:4;stroke-dasharray:none;stroke-opacity:1"
                     id="path844" />
                  <path
                     d="m 71.802632,69.573588 h 0.894697 v 5.859827 h 3.220026 v 0.752963 h -4.114723 z"
                     style="fill:none;stroke:#000000;stroke-width:0.17039119;stroke-miterlimit:4;stroke-dasharray:none;stroke-opacity:1"
                     id="path846" />
                  <path
                     d="m 79.987787,73.085941 c 0.191931,0.06496 0.377957,0.203741 0.558078,0.416344 0.183074,0.212602 0.366148,0.504929 0.549221,0.876981 l 0.907985,1.807112 h -0.961136 l -0.845976,-1.696382 c -0.218507,-0.442919 -0.431109,-0.736723 -0.637804,-0.88141 -0.203743,-0.144687 -0.482783,-0.21703 -0.837119,-0.21703 h -0.974423 v 2.794822 h -0.894697 v -6.61279 h 2.019713 c 0.755916,0 1.3199,0.157975 1.691953,0.473924 0.372053,0.315949 0.558079,0.792826 0.558079,1.430631 0,0.416344 -0.09744,0.761821 -0.292327,1.036432 -0.191932,0.27461 -0.472448,0.465065 -0.841547,0.571366 z"
                     style="fill:none;stroke:#000000;stroke-width:0.17039119;stroke-miterlimit:4;stroke-dasharray:none;stroke-opacity:1"
                     id="path848"
                     inkscape:connector-curvature="0"
                     sodipodi:nodetypes="cccccccsccccssscc" />
                </g>
              </g>
            </g>
          </g>
        </g>
      </g>
    </g>
  </g>
</svg>
