G04 #@! TF.GenerationSoftware,KiCad,Pcbnew,5.1.4-5.1.4*
G04 #@! TF.CreationDate,2019-11-25T21:03:58+01:00*
G04 #@! TF.ProjectId,pcb,7063622e-6b69-4636-9164-5f7063625858,rev?*
G04 #@! TF.SameCoordinates,Original*
G04 #@! TF.FileFunction,Soldermask,Top*
G04 #@! TF.FilePolarity,Negative*
%FSLAX46Y46*%
G04 Gerber Fmt 4.6, Leading zero omitted, Abs format (unit mm)*
G04 Created by KiCad (PCBNEW 5.1.4-5.1.4) date 2019-11-25 21:03:58*
%MOMM*%
%LPD*%
G04 APERTURE LIST*
%ADD10C,0.100000*%
G04 APERTURE END LIST*
D10*
G36*
X130976823Y-60121313D02*
G01*
X131137242Y-60169976D01*
X131269906Y-60240886D01*
X131285078Y-60248996D01*
X131414659Y-60355341D01*
X131521004Y-60484922D01*
X131521005Y-60484924D01*
X131600024Y-60632758D01*
X131648687Y-60793177D01*
X131665117Y-60960000D01*
X131648687Y-61126823D01*
X131600024Y-61287242D01*
X131529114Y-61419906D01*
X131521004Y-61435078D01*
X131414659Y-61564659D01*
X131285078Y-61671004D01*
X131285076Y-61671005D01*
X131137242Y-61750024D01*
X130976823Y-61798687D01*
X130851804Y-61811000D01*
X130768196Y-61811000D01*
X130643177Y-61798687D01*
X130482758Y-61750024D01*
X130334924Y-61671005D01*
X130334922Y-61671004D01*
X130205341Y-61564659D01*
X130098996Y-61435078D01*
X130090886Y-61419906D01*
X130019976Y-61287242D01*
X129971313Y-61126823D01*
X129954883Y-60960000D01*
X129971313Y-60793177D01*
X130019976Y-60632758D01*
X130098995Y-60484924D01*
X130098996Y-60484922D01*
X130205341Y-60355341D01*
X130334922Y-60248996D01*
X130350094Y-60240886D01*
X130482758Y-60169976D01*
X130643177Y-60121313D01*
X130768196Y-60109000D01*
X130851804Y-60109000D01*
X130976823Y-60121313D01*
X130976823Y-60121313D01*
G37*
G36*
X115736823Y-60121313D02*
G01*
X115897242Y-60169976D01*
X116029906Y-60240886D01*
X116045078Y-60248996D01*
X116174659Y-60355341D01*
X116281004Y-60484922D01*
X116281005Y-60484924D01*
X116360024Y-60632758D01*
X116408687Y-60793177D01*
X116425117Y-60960000D01*
X116408687Y-61126823D01*
X116360024Y-61287242D01*
X116289114Y-61419906D01*
X116281004Y-61435078D01*
X116174659Y-61564659D01*
X116045078Y-61671004D01*
X116045076Y-61671005D01*
X115897242Y-61750024D01*
X115736823Y-61798687D01*
X115611804Y-61811000D01*
X115528196Y-61811000D01*
X115403177Y-61798687D01*
X115242758Y-61750024D01*
X115094924Y-61671005D01*
X115094922Y-61671004D01*
X114965341Y-61564659D01*
X114858996Y-61435078D01*
X114850886Y-61419906D01*
X114779976Y-61287242D01*
X114731313Y-61126823D01*
X114714883Y-60960000D01*
X114731313Y-60793177D01*
X114779976Y-60632758D01*
X114858995Y-60484924D01*
X114858996Y-60484922D01*
X114965341Y-60355341D01*
X115094922Y-60248996D01*
X115110094Y-60240886D01*
X115242758Y-60169976D01*
X115403177Y-60121313D01*
X115528196Y-60109000D01*
X115611804Y-60109000D01*
X115736823Y-60121313D01*
X115736823Y-60121313D01*
G37*
G36*
X137231213Y-59157502D02*
G01*
X137302321Y-59164505D01*
X137439172Y-59206019D01*
X137439175Y-59206020D01*
X137565294Y-59273432D01*
X137675843Y-59364157D01*
X137766568Y-59474706D01*
X137833980Y-59600825D01*
X137833981Y-59600828D01*
X137875495Y-59737679D01*
X137889512Y-59880000D01*
X137875495Y-60022321D01*
X137845465Y-60121314D01*
X137833980Y-60159175D01*
X137766568Y-60285294D01*
X137675843Y-60395843D01*
X137565294Y-60486568D01*
X137439175Y-60553980D01*
X137439172Y-60553981D01*
X137302321Y-60595495D01*
X137231213Y-60602498D01*
X137195660Y-60606000D01*
X137124340Y-60606000D01*
X137088787Y-60602498D01*
X137017679Y-60595495D01*
X136880828Y-60553981D01*
X136880825Y-60553980D01*
X136754706Y-60486568D01*
X136644157Y-60395843D01*
X136553432Y-60285294D01*
X136486020Y-60159175D01*
X136474535Y-60121314D01*
X136444505Y-60022321D01*
X136430488Y-59880000D01*
X136444505Y-59737679D01*
X136486019Y-59600828D01*
X136486020Y-59600825D01*
X136553432Y-59474706D01*
X136644157Y-59364157D01*
X136754706Y-59273432D01*
X136880825Y-59206020D01*
X136880828Y-59206019D01*
X137017679Y-59164505D01*
X137088787Y-59157502D01*
X137124340Y-59154000D01*
X137195660Y-59154000D01*
X137231213Y-59157502D01*
X137231213Y-59157502D01*
G37*
G36*
X130976823Y-57581313D02*
G01*
X131137242Y-57629976D01*
X131269906Y-57700886D01*
X131285078Y-57708996D01*
X131414659Y-57815341D01*
X131521004Y-57944922D01*
X131521005Y-57944924D01*
X131600024Y-58092758D01*
X131648687Y-58253177D01*
X131665117Y-58420000D01*
X131648687Y-58586823D01*
X131600024Y-58747242D01*
X131529114Y-58879906D01*
X131521004Y-58895078D01*
X131414659Y-59024659D01*
X131285078Y-59131004D01*
X131285076Y-59131005D01*
X131137242Y-59210024D01*
X130976823Y-59258687D01*
X130851804Y-59271000D01*
X130768196Y-59271000D01*
X130643177Y-59258687D01*
X130482758Y-59210024D01*
X130334924Y-59131005D01*
X130334922Y-59131004D01*
X130205341Y-59024659D01*
X130098996Y-58895078D01*
X130090886Y-58879906D01*
X130019976Y-58747242D01*
X129971313Y-58586823D01*
X129954883Y-58420000D01*
X129971313Y-58253177D01*
X130019976Y-58092758D01*
X130098995Y-57944924D01*
X130098996Y-57944922D01*
X130205341Y-57815341D01*
X130334922Y-57708996D01*
X130350094Y-57700886D01*
X130482758Y-57629976D01*
X130643177Y-57581313D01*
X130768196Y-57569000D01*
X130851804Y-57569000D01*
X130976823Y-57581313D01*
X130976823Y-57581313D01*
G37*
G36*
X115736823Y-57581313D02*
G01*
X115897242Y-57629976D01*
X116029906Y-57700886D01*
X116045078Y-57708996D01*
X116174659Y-57815341D01*
X116281004Y-57944922D01*
X116281005Y-57944924D01*
X116360024Y-58092758D01*
X116408687Y-58253177D01*
X116425117Y-58420000D01*
X116408687Y-58586823D01*
X116360024Y-58747242D01*
X116289114Y-58879906D01*
X116281004Y-58895078D01*
X116174659Y-59024659D01*
X116045078Y-59131004D01*
X116045076Y-59131005D01*
X115897242Y-59210024D01*
X115736823Y-59258687D01*
X115611804Y-59271000D01*
X115528196Y-59271000D01*
X115403177Y-59258687D01*
X115242758Y-59210024D01*
X115094924Y-59131005D01*
X115094922Y-59131004D01*
X114965341Y-59024659D01*
X114858996Y-58895078D01*
X114850886Y-58879906D01*
X114779976Y-58747242D01*
X114731313Y-58586823D01*
X114714883Y-58420000D01*
X114731313Y-58253177D01*
X114779976Y-58092758D01*
X114858995Y-57944924D01*
X114858996Y-57944922D01*
X114965341Y-57815341D01*
X115094922Y-57708996D01*
X115110094Y-57700886D01*
X115242758Y-57629976D01*
X115403177Y-57581313D01*
X115528196Y-57569000D01*
X115611804Y-57569000D01*
X115736823Y-57581313D01*
X115736823Y-57581313D01*
G37*
G36*
X137231213Y-57157502D02*
G01*
X137302321Y-57164505D01*
X137439172Y-57206019D01*
X137439175Y-57206020D01*
X137565294Y-57273432D01*
X137675843Y-57364157D01*
X137766568Y-57474706D01*
X137833980Y-57600825D01*
X137833981Y-57600828D01*
X137875495Y-57737679D01*
X137889512Y-57880000D01*
X137875495Y-58022321D01*
X137854127Y-58092761D01*
X137833980Y-58159175D01*
X137766568Y-58285294D01*
X137675843Y-58395843D01*
X137565294Y-58486568D01*
X137439175Y-58553980D01*
X137439172Y-58553981D01*
X137302321Y-58595495D01*
X137231213Y-58602498D01*
X137195660Y-58606000D01*
X137124340Y-58606000D01*
X137088787Y-58602498D01*
X137017679Y-58595495D01*
X136880828Y-58553981D01*
X136880825Y-58553980D01*
X136754706Y-58486568D01*
X136644157Y-58395843D01*
X136553432Y-58285294D01*
X136486020Y-58159175D01*
X136465873Y-58092761D01*
X136444505Y-58022321D01*
X136430488Y-57880000D01*
X136444505Y-57737679D01*
X136486019Y-57600828D01*
X136486020Y-57600825D01*
X136553432Y-57474706D01*
X136644157Y-57364157D01*
X136754706Y-57273432D01*
X136880825Y-57206020D01*
X136880828Y-57206019D01*
X137017679Y-57164505D01*
X137088787Y-57157502D01*
X137124340Y-57154000D01*
X137195660Y-57154000D01*
X137231213Y-57157502D01*
X137231213Y-57157502D01*
G37*
G36*
X130976823Y-55041313D02*
G01*
X131137242Y-55089976D01*
X131257022Y-55154000D01*
X131285078Y-55168996D01*
X131414659Y-55275341D01*
X131521004Y-55404922D01*
X131521005Y-55404924D01*
X131600024Y-55552758D01*
X131648687Y-55713177D01*
X131665117Y-55880000D01*
X131648687Y-56046823D01*
X131600024Y-56207242D01*
X131529114Y-56339906D01*
X131521004Y-56355078D01*
X131414659Y-56484659D01*
X131285078Y-56591004D01*
X131285076Y-56591005D01*
X131137242Y-56670024D01*
X130976823Y-56718687D01*
X130851804Y-56731000D01*
X130768196Y-56731000D01*
X130643177Y-56718687D01*
X130482758Y-56670024D01*
X130334924Y-56591005D01*
X130334922Y-56591004D01*
X130205341Y-56484659D01*
X130098996Y-56355078D01*
X130090886Y-56339906D01*
X130019976Y-56207242D01*
X129971313Y-56046823D01*
X129954883Y-55880000D01*
X129971313Y-55713177D01*
X130019976Y-55552758D01*
X130098995Y-55404924D01*
X130098996Y-55404922D01*
X130205341Y-55275341D01*
X130334922Y-55168996D01*
X130362978Y-55154000D01*
X130482758Y-55089976D01*
X130643177Y-55041313D01*
X130768196Y-55029000D01*
X130851804Y-55029000D01*
X130976823Y-55041313D01*
X130976823Y-55041313D01*
G37*
G36*
X115736823Y-55041313D02*
G01*
X115897242Y-55089976D01*
X116017022Y-55154000D01*
X116045078Y-55168996D01*
X116174659Y-55275341D01*
X116281004Y-55404922D01*
X116281005Y-55404924D01*
X116360024Y-55552758D01*
X116408687Y-55713177D01*
X116425117Y-55880000D01*
X116408687Y-56046823D01*
X116360024Y-56207242D01*
X116289114Y-56339906D01*
X116281004Y-56355078D01*
X116174659Y-56484659D01*
X116045078Y-56591004D01*
X116045076Y-56591005D01*
X115897242Y-56670024D01*
X115736823Y-56718687D01*
X115611804Y-56731000D01*
X115528196Y-56731000D01*
X115403177Y-56718687D01*
X115242758Y-56670024D01*
X115094924Y-56591005D01*
X115094922Y-56591004D01*
X114965341Y-56484659D01*
X114858996Y-56355078D01*
X114850886Y-56339906D01*
X114779976Y-56207242D01*
X114731313Y-56046823D01*
X114714883Y-55880000D01*
X114731313Y-55713177D01*
X114779976Y-55552758D01*
X114858995Y-55404924D01*
X114858996Y-55404922D01*
X114965341Y-55275341D01*
X115094922Y-55168996D01*
X115122978Y-55154000D01*
X115242758Y-55089976D01*
X115403177Y-55041313D01*
X115528196Y-55029000D01*
X115611804Y-55029000D01*
X115736823Y-55041313D01*
X115736823Y-55041313D01*
G37*
G36*
X137886000Y-56606000D02*
G01*
X136434000Y-56606000D01*
X136434000Y-55154000D01*
X137886000Y-55154000D01*
X137886000Y-56606000D01*
X137886000Y-56606000D01*
G37*
G36*
X130976823Y-52501313D02*
G01*
X131137242Y-52549976D01*
X131269906Y-52620886D01*
X131285078Y-52628996D01*
X131414659Y-52735341D01*
X131521004Y-52864922D01*
X131521005Y-52864924D01*
X131600024Y-53012758D01*
X131648687Y-53173177D01*
X131665117Y-53340000D01*
X131648687Y-53506823D01*
X131600024Y-53667242D01*
X131529114Y-53799906D01*
X131521004Y-53815078D01*
X131414659Y-53944659D01*
X131285078Y-54051004D01*
X131285076Y-54051005D01*
X131137242Y-54130024D01*
X130976823Y-54178687D01*
X130851804Y-54191000D01*
X130768196Y-54191000D01*
X130643177Y-54178687D01*
X130482758Y-54130024D01*
X130334924Y-54051005D01*
X130334922Y-54051004D01*
X130205341Y-53944659D01*
X130098996Y-53815078D01*
X130090886Y-53799906D01*
X130019976Y-53667242D01*
X129971313Y-53506823D01*
X129954883Y-53340000D01*
X129971313Y-53173177D01*
X130019976Y-53012758D01*
X130098995Y-52864924D01*
X130098996Y-52864922D01*
X130205341Y-52735341D01*
X130334922Y-52628996D01*
X130350094Y-52620886D01*
X130482758Y-52549976D01*
X130643177Y-52501313D01*
X130768196Y-52489000D01*
X130851804Y-52489000D01*
X130976823Y-52501313D01*
X130976823Y-52501313D01*
G37*
G36*
X115736823Y-52501313D02*
G01*
X115897242Y-52549976D01*
X116029906Y-52620886D01*
X116045078Y-52628996D01*
X116174659Y-52735341D01*
X116281004Y-52864922D01*
X116281005Y-52864924D01*
X116360024Y-53012758D01*
X116408687Y-53173177D01*
X116425117Y-53340000D01*
X116408687Y-53506823D01*
X116360024Y-53667242D01*
X116289114Y-53799906D01*
X116281004Y-53815078D01*
X116174659Y-53944659D01*
X116045078Y-54051004D01*
X116045076Y-54051005D01*
X115897242Y-54130024D01*
X115736823Y-54178687D01*
X115611804Y-54191000D01*
X115528196Y-54191000D01*
X115403177Y-54178687D01*
X115242758Y-54130024D01*
X115094924Y-54051005D01*
X115094922Y-54051004D01*
X114965341Y-53944659D01*
X114858996Y-53815078D01*
X114850886Y-53799906D01*
X114779976Y-53667242D01*
X114731313Y-53506823D01*
X114714883Y-53340000D01*
X114731313Y-53173177D01*
X114779976Y-53012758D01*
X114858995Y-52864924D01*
X114858996Y-52864922D01*
X114965341Y-52735341D01*
X115094922Y-52628996D01*
X115110094Y-52620886D01*
X115242758Y-52549976D01*
X115403177Y-52501313D01*
X115528196Y-52489000D01*
X115611804Y-52489000D01*
X115736823Y-52501313D01*
X115736823Y-52501313D01*
G37*
G36*
X130976823Y-49961313D02*
G01*
X131137242Y-50009976D01*
X131269906Y-50080886D01*
X131285078Y-50088996D01*
X131414659Y-50195341D01*
X131521004Y-50324922D01*
X131521005Y-50324924D01*
X131600024Y-50472758D01*
X131648687Y-50633177D01*
X131665117Y-50800000D01*
X131648687Y-50966823D01*
X131600024Y-51127242D01*
X131529114Y-51259906D01*
X131521004Y-51275078D01*
X131414659Y-51404659D01*
X131285078Y-51511004D01*
X131285076Y-51511005D01*
X131137242Y-51590024D01*
X130976823Y-51638687D01*
X130851804Y-51651000D01*
X130768196Y-51651000D01*
X130643177Y-51638687D01*
X130482758Y-51590024D01*
X130334924Y-51511005D01*
X130334922Y-51511004D01*
X130205341Y-51404659D01*
X130098996Y-51275078D01*
X130090886Y-51259906D01*
X130019976Y-51127242D01*
X129971313Y-50966823D01*
X129954883Y-50800000D01*
X129971313Y-50633177D01*
X130019976Y-50472758D01*
X130098995Y-50324924D01*
X130098996Y-50324922D01*
X130205341Y-50195341D01*
X130334922Y-50088996D01*
X130350094Y-50080886D01*
X130482758Y-50009976D01*
X130643177Y-49961313D01*
X130768196Y-49949000D01*
X130851804Y-49949000D01*
X130976823Y-49961313D01*
X130976823Y-49961313D01*
G37*
G36*
X115736823Y-49961313D02*
G01*
X115897242Y-50009976D01*
X116029906Y-50080886D01*
X116045078Y-50088996D01*
X116174659Y-50195341D01*
X116281004Y-50324922D01*
X116281005Y-50324924D01*
X116360024Y-50472758D01*
X116408687Y-50633177D01*
X116425117Y-50800000D01*
X116408687Y-50966823D01*
X116360024Y-51127242D01*
X116289114Y-51259906D01*
X116281004Y-51275078D01*
X116174659Y-51404659D01*
X116045078Y-51511004D01*
X116045076Y-51511005D01*
X115897242Y-51590024D01*
X115736823Y-51638687D01*
X115611804Y-51651000D01*
X115528196Y-51651000D01*
X115403177Y-51638687D01*
X115242758Y-51590024D01*
X115094924Y-51511005D01*
X115094922Y-51511004D01*
X114965341Y-51404659D01*
X114858996Y-51275078D01*
X114850886Y-51259906D01*
X114779976Y-51127242D01*
X114731313Y-50966823D01*
X114714883Y-50800000D01*
X114731313Y-50633177D01*
X114779976Y-50472758D01*
X114858995Y-50324924D01*
X114858996Y-50324922D01*
X114965341Y-50195341D01*
X115094922Y-50088996D01*
X115110094Y-50080886D01*
X115242758Y-50009976D01*
X115403177Y-49961313D01*
X115528196Y-49949000D01*
X115611804Y-49949000D01*
X115736823Y-49961313D01*
X115736823Y-49961313D01*
G37*
G36*
X115736823Y-47421313D02*
G01*
X115897242Y-47469976D01*
X115990581Y-47519867D01*
X116045078Y-47548996D01*
X116174659Y-47655341D01*
X116281004Y-47784922D01*
X116281005Y-47784924D01*
X116360024Y-47932758D01*
X116408687Y-48093177D01*
X116425117Y-48260000D01*
X116408687Y-48426823D01*
X116360024Y-48587242D01*
X116289114Y-48719906D01*
X116281004Y-48735078D01*
X116174659Y-48864659D01*
X116045078Y-48971004D01*
X116045076Y-48971005D01*
X115897242Y-49050024D01*
X115736823Y-49098687D01*
X115611804Y-49111000D01*
X115528196Y-49111000D01*
X115403177Y-49098687D01*
X115242758Y-49050024D01*
X115094924Y-48971005D01*
X115094922Y-48971004D01*
X114965341Y-48864659D01*
X114858996Y-48735078D01*
X114850886Y-48719906D01*
X114779976Y-48587242D01*
X114731313Y-48426823D01*
X114714883Y-48260000D01*
X114731313Y-48093177D01*
X114779976Y-47932758D01*
X114858995Y-47784924D01*
X114858996Y-47784922D01*
X114965341Y-47655341D01*
X115094922Y-47548996D01*
X115149419Y-47519867D01*
X115242758Y-47469976D01*
X115403177Y-47421313D01*
X115528196Y-47409000D01*
X115611804Y-47409000D01*
X115736823Y-47421313D01*
X115736823Y-47421313D01*
G37*
G36*
X130976823Y-47421313D02*
G01*
X131137242Y-47469976D01*
X131230581Y-47519867D01*
X131285078Y-47548996D01*
X131414659Y-47655341D01*
X131521004Y-47784922D01*
X131521005Y-47784924D01*
X131600024Y-47932758D01*
X131648687Y-48093177D01*
X131665117Y-48260000D01*
X131648687Y-48426823D01*
X131600024Y-48587242D01*
X131529114Y-48719906D01*
X131521004Y-48735078D01*
X131414659Y-48864659D01*
X131285078Y-48971004D01*
X131285076Y-48971005D01*
X131137242Y-49050024D01*
X130976823Y-49098687D01*
X130851804Y-49111000D01*
X130768196Y-49111000D01*
X130643177Y-49098687D01*
X130482758Y-49050024D01*
X130334924Y-48971005D01*
X130334922Y-48971004D01*
X130205341Y-48864659D01*
X130098996Y-48735078D01*
X130090886Y-48719906D01*
X130019976Y-48587242D01*
X129971313Y-48426823D01*
X129954883Y-48260000D01*
X129971313Y-48093177D01*
X130019976Y-47932758D01*
X130098995Y-47784924D01*
X130098996Y-47784922D01*
X130205341Y-47655341D01*
X130334922Y-47548996D01*
X130389419Y-47519867D01*
X130482758Y-47469976D01*
X130643177Y-47421313D01*
X130768196Y-47409000D01*
X130851804Y-47409000D01*
X130976823Y-47421313D01*
X130976823Y-47421313D01*
G37*
G36*
X134839059Y-47537860D02*
G01*
X134899294Y-47562810D01*
X134975732Y-47594472D01*
X135098735Y-47676660D01*
X135203340Y-47781265D01*
X135285528Y-47904268D01*
X135342140Y-48040941D01*
X135371000Y-48186033D01*
X135371000Y-48333967D01*
X135342140Y-48479059D01*
X135285528Y-48615732D01*
X135203340Y-48738735D01*
X135098735Y-48843340D01*
X134975732Y-48925528D01*
X134975731Y-48925529D01*
X134975730Y-48925529D01*
X134839059Y-48982140D01*
X134693968Y-49011000D01*
X134546032Y-49011000D01*
X134400941Y-48982140D01*
X134264270Y-48925529D01*
X134264269Y-48925529D01*
X134264268Y-48925528D01*
X134141265Y-48843340D01*
X134036660Y-48738735D01*
X133954472Y-48615732D01*
X133897860Y-48479059D01*
X133869000Y-48333967D01*
X133869000Y-48186033D01*
X133897860Y-48040941D01*
X133954472Y-47904268D01*
X134036660Y-47781265D01*
X134141265Y-47676660D01*
X134264268Y-47594472D01*
X134340707Y-47562810D01*
X134400941Y-47537860D01*
X134546032Y-47509000D01*
X134693968Y-47509000D01*
X134839059Y-47537860D01*
X134839059Y-47537860D01*
G37*
G36*
X142313665Y-47512622D02*
G01*
X142387222Y-47519867D01*
X142528786Y-47562810D01*
X142659252Y-47632546D01*
X142687028Y-47655341D01*
X142773607Y-47726393D01*
X142843008Y-47810960D01*
X142867454Y-47840748D01*
X142937190Y-47971214D01*
X142980133Y-48112778D01*
X142994633Y-48260000D01*
X142980133Y-48407222D01*
X142937190Y-48548786D01*
X142867454Y-48679252D01*
X142843008Y-48709040D01*
X142773607Y-48793607D01*
X142713004Y-48843341D01*
X142659252Y-48887454D01*
X142528786Y-48957190D01*
X142387222Y-49000133D01*
X142313665Y-49007378D01*
X142276888Y-49011000D01*
X142203112Y-49011000D01*
X142166335Y-49007378D01*
X142092778Y-49000133D01*
X141951214Y-48957190D01*
X141820748Y-48887454D01*
X141766996Y-48843341D01*
X141706393Y-48793607D01*
X141636992Y-48709040D01*
X141612546Y-48679252D01*
X141542810Y-48548786D01*
X141499867Y-48407222D01*
X141485367Y-48260000D01*
X141499867Y-48112778D01*
X141542810Y-47971214D01*
X141612546Y-47840748D01*
X141636992Y-47810960D01*
X141706393Y-47726393D01*
X141792972Y-47655341D01*
X141820748Y-47632546D01*
X141951214Y-47562810D01*
X142092778Y-47519867D01*
X142166335Y-47512622D01*
X142203112Y-47509000D01*
X142276888Y-47509000D01*
X142313665Y-47512622D01*
X142313665Y-47512622D01*
G37*
G36*
X147486823Y-46151313D02*
G01*
X147647242Y-46199976D01*
X147779906Y-46270886D01*
X147795078Y-46278996D01*
X147924659Y-46385341D01*
X148031004Y-46514922D01*
X148031005Y-46514924D01*
X148110024Y-46662758D01*
X148158687Y-46823177D01*
X148175117Y-46990000D01*
X148158687Y-47156823D01*
X148110024Y-47317242D01*
X148060978Y-47409000D01*
X148031004Y-47465078D01*
X147924659Y-47594659D01*
X147795078Y-47701004D01*
X147795076Y-47701005D01*
X147647242Y-47780024D01*
X147647239Y-47780025D01*
X147631096Y-47784922D01*
X147486823Y-47828687D01*
X147361804Y-47841000D01*
X147278196Y-47841000D01*
X147153177Y-47828687D01*
X147008904Y-47784922D01*
X146992761Y-47780025D01*
X146992758Y-47780024D01*
X146844924Y-47701005D01*
X146844922Y-47701004D01*
X146715341Y-47594659D01*
X146608996Y-47465078D01*
X146579022Y-47409000D01*
X146529976Y-47317242D01*
X146481313Y-47156823D01*
X146464883Y-46990000D01*
X146481313Y-46823177D01*
X146529976Y-46662758D01*
X146608995Y-46514924D01*
X146608996Y-46514922D01*
X146715341Y-46385341D01*
X146844922Y-46278996D01*
X146860094Y-46270886D01*
X146992758Y-46199976D01*
X147153177Y-46151313D01*
X147278196Y-46139000D01*
X147361804Y-46139000D01*
X147486823Y-46151313D01*
X147486823Y-46151313D01*
G37*
G36*
X155106823Y-46151313D02*
G01*
X155267242Y-46199976D01*
X155399906Y-46270886D01*
X155415078Y-46278996D01*
X155544659Y-46385341D01*
X155651004Y-46514922D01*
X155651005Y-46514924D01*
X155730024Y-46662758D01*
X155778687Y-46823177D01*
X155795117Y-46990000D01*
X155778687Y-47156823D01*
X155730024Y-47317242D01*
X155680978Y-47409000D01*
X155651004Y-47465078D01*
X155544659Y-47594659D01*
X155415078Y-47701004D01*
X155415076Y-47701005D01*
X155267242Y-47780024D01*
X155267239Y-47780025D01*
X155251096Y-47784922D01*
X155106823Y-47828687D01*
X154981804Y-47841000D01*
X154898196Y-47841000D01*
X154773177Y-47828687D01*
X154628904Y-47784922D01*
X154612761Y-47780025D01*
X154612758Y-47780024D01*
X154464924Y-47701005D01*
X154464922Y-47701004D01*
X154335341Y-47594659D01*
X154228996Y-47465078D01*
X154199022Y-47409000D01*
X154149976Y-47317242D01*
X154101313Y-47156823D01*
X154084883Y-46990000D01*
X154101313Y-46823177D01*
X154149976Y-46662758D01*
X154228995Y-46514924D01*
X154228996Y-46514922D01*
X154335341Y-46385341D01*
X154464922Y-46278996D01*
X154480094Y-46270886D01*
X154612758Y-46199976D01*
X154773177Y-46151313D01*
X154898196Y-46139000D01*
X154981804Y-46139000D01*
X155106823Y-46151313D01*
X155106823Y-46151313D01*
G37*
G36*
X130976823Y-44881313D02*
G01*
X131137242Y-44929976D01*
X131269906Y-45000886D01*
X131285078Y-45008996D01*
X131414659Y-45115341D01*
X131521004Y-45244922D01*
X131521005Y-45244924D01*
X131600024Y-45392758D01*
X131648687Y-45553177D01*
X131665117Y-45720000D01*
X131648687Y-45886823D01*
X131600024Y-46047242D01*
X131550978Y-46139000D01*
X131521004Y-46195078D01*
X131414659Y-46324659D01*
X131285078Y-46431004D01*
X131285076Y-46431005D01*
X131137242Y-46510024D01*
X130976823Y-46558687D01*
X130851804Y-46571000D01*
X130768196Y-46571000D01*
X130643177Y-46558687D01*
X130482758Y-46510024D01*
X130334924Y-46431005D01*
X130334922Y-46431004D01*
X130205341Y-46324659D01*
X130098996Y-46195078D01*
X130069022Y-46139000D01*
X130019976Y-46047242D01*
X129971313Y-45886823D01*
X129954883Y-45720000D01*
X129971313Y-45553177D01*
X130019976Y-45392758D01*
X130098995Y-45244924D01*
X130098996Y-45244922D01*
X130205341Y-45115341D01*
X130334922Y-45008996D01*
X130350094Y-45000886D01*
X130482758Y-44929976D01*
X130643177Y-44881313D01*
X130768196Y-44869000D01*
X130851804Y-44869000D01*
X130976823Y-44881313D01*
X130976823Y-44881313D01*
G37*
G36*
X115736823Y-44881313D02*
G01*
X115897242Y-44929976D01*
X116029906Y-45000886D01*
X116045078Y-45008996D01*
X116174659Y-45115341D01*
X116281004Y-45244922D01*
X116281005Y-45244924D01*
X116360024Y-45392758D01*
X116408687Y-45553177D01*
X116425117Y-45720000D01*
X116408687Y-45886823D01*
X116360024Y-46047242D01*
X116310978Y-46139000D01*
X116281004Y-46195078D01*
X116174659Y-46324659D01*
X116045078Y-46431004D01*
X116045076Y-46431005D01*
X115897242Y-46510024D01*
X115736823Y-46558687D01*
X115611804Y-46571000D01*
X115528196Y-46571000D01*
X115403177Y-46558687D01*
X115242758Y-46510024D01*
X115094924Y-46431005D01*
X115094922Y-46431004D01*
X114965341Y-46324659D01*
X114858996Y-46195078D01*
X114829022Y-46139000D01*
X114779976Y-46047242D01*
X114731313Y-45886823D01*
X114714883Y-45720000D01*
X114731313Y-45553177D01*
X114779976Y-45392758D01*
X114858995Y-45244924D01*
X114858996Y-45244922D01*
X114965341Y-45115341D01*
X115094922Y-45008996D01*
X115110094Y-45000886D01*
X115242758Y-44929976D01*
X115403177Y-44881313D01*
X115528196Y-44869000D01*
X115611804Y-44869000D01*
X115736823Y-44881313D01*
X115736823Y-44881313D01*
G37*
G36*
X147486823Y-43611313D02*
G01*
X147647242Y-43659976D01*
X147779906Y-43730886D01*
X147795078Y-43738996D01*
X147924659Y-43845341D01*
X148031004Y-43974922D01*
X148031005Y-43974924D01*
X148110024Y-44122758D01*
X148158687Y-44283177D01*
X148175117Y-44450000D01*
X148158687Y-44616823D01*
X148110024Y-44777242D01*
X148060978Y-44869000D01*
X148031004Y-44925078D01*
X147924659Y-45054659D01*
X147795078Y-45161004D01*
X147795076Y-45161005D01*
X147647242Y-45240024D01*
X147486823Y-45288687D01*
X147361804Y-45301000D01*
X147278196Y-45301000D01*
X147153177Y-45288687D01*
X146992758Y-45240024D01*
X146844924Y-45161005D01*
X146844922Y-45161004D01*
X146715341Y-45054659D01*
X146608996Y-44925078D01*
X146579022Y-44869000D01*
X146529976Y-44777242D01*
X146481313Y-44616823D01*
X146464883Y-44450000D01*
X146481313Y-44283177D01*
X146529976Y-44122758D01*
X146608995Y-43974924D01*
X146608996Y-43974922D01*
X146715341Y-43845341D01*
X146844922Y-43738996D01*
X146860094Y-43730886D01*
X146992758Y-43659976D01*
X147153177Y-43611313D01*
X147278196Y-43599000D01*
X147361804Y-43599000D01*
X147486823Y-43611313D01*
X147486823Y-43611313D01*
G37*
G36*
X142406823Y-43611313D02*
G01*
X142567242Y-43659976D01*
X142699906Y-43730886D01*
X142715078Y-43738996D01*
X142844659Y-43845341D01*
X142951004Y-43974922D01*
X142951005Y-43974924D01*
X143030024Y-44122758D01*
X143078687Y-44283177D01*
X143095117Y-44450000D01*
X143078687Y-44616823D01*
X143030024Y-44777242D01*
X142980978Y-44869000D01*
X142951004Y-44925078D01*
X142844659Y-45054659D01*
X142715078Y-45161004D01*
X142715076Y-45161005D01*
X142567242Y-45240024D01*
X142406823Y-45288687D01*
X142281804Y-45301000D01*
X142198196Y-45301000D01*
X142073177Y-45288687D01*
X141912758Y-45240024D01*
X141764924Y-45161005D01*
X141764922Y-45161004D01*
X141635341Y-45054659D01*
X141528996Y-44925078D01*
X141499022Y-44869000D01*
X141449976Y-44777242D01*
X141401313Y-44616823D01*
X141384883Y-44450000D01*
X141401313Y-44283177D01*
X141449976Y-44122758D01*
X141528995Y-43974924D01*
X141528996Y-43974922D01*
X141635341Y-43845341D01*
X141764922Y-43738996D01*
X141780094Y-43730886D01*
X141912758Y-43659976D01*
X142073177Y-43611313D01*
X142198196Y-43599000D01*
X142281804Y-43599000D01*
X142406823Y-43611313D01*
X142406823Y-43611313D01*
G37*
G36*
X155106823Y-43611313D02*
G01*
X155267242Y-43659976D01*
X155399906Y-43730886D01*
X155415078Y-43738996D01*
X155544659Y-43845341D01*
X155651004Y-43974922D01*
X155651005Y-43974924D01*
X155730024Y-44122758D01*
X155778687Y-44283177D01*
X155795117Y-44450000D01*
X155778687Y-44616823D01*
X155730024Y-44777242D01*
X155680978Y-44869000D01*
X155651004Y-44925078D01*
X155544659Y-45054659D01*
X155415078Y-45161004D01*
X155415076Y-45161005D01*
X155267242Y-45240024D01*
X155106823Y-45288687D01*
X154981804Y-45301000D01*
X154898196Y-45301000D01*
X154773177Y-45288687D01*
X154612758Y-45240024D01*
X154464924Y-45161005D01*
X154464922Y-45161004D01*
X154335341Y-45054659D01*
X154228996Y-44925078D01*
X154199022Y-44869000D01*
X154149976Y-44777242D01*
X154101313Y-44616823D01*
X154084883Y-44450000D01*
X154101313Y-44283177D01*
X154149976Y-44122758D01*
X154228995Y-43974924D01*
X154228996Y-43974922D01*
X154335341Y-43845341D01*
X154464922Y-43738996D01*
X154480094Y-43730886D01*
X154612758Y-43659976D01*
X154773177Y-43611313D01*
X154898196Y-43599000D01*
X154981804Y-43599000D01*
X155106823Y-43611313D01*
X155106823Y-43611313D01*
G37*
G36*
X134786823Y-43611313D02*
G01*
X134947242Y-43659976D01*
X135079906Y-43730886D01*
X135095078Y-43738996D01*
X135224659Y-43845341D01*
X135331004Y-43974922D01*
X135331005Y-43974924D01*
X135410024Y-44122758D01*
X135458687Y-44283177D01*
X135475117Y-44450000D01*
X135458687Y-44616823D01*
X135410024Y-44777242D01*
X135360978Y-44869000D01*
X135331004Y-44925078D01*
X135224659Y-45054659D01*
X135095078Y-45161004D01*
X135095076Y-45161005D01*
X134947242Y-45240024D01*
X134786823Y-45288687D01*
X134661804Y-45301000D01*
X134578196Y-45301000D01*
X134453177Y-45288687D01*
X134292758Y-45240024D01*
X134144924Y-45161005D01*
X134144922Y-45161004D01*
X134015341Y-45054659D01*
X133908996Y-44925078D01*
X133879022Y-44869000D01*
X133829976Y-44777242D01*
X133781313Y-44616823D01*
X133764883Y-44450000D01*
X133781313Y-44283177D01*
X133829976Y-44122758D01*
X133908995Y-43974924D01*
X133908996Y-43974922D01*
X134015341Y-43845341D01*
X134144922Y-43738996D01*
X134160094Y-43730886D01*
X134292758Y-43659976D01*
X134453177Y-43611313D01*
X134578196Y-43599000D01*
X134661804Y-43599000D01*
X134786823Y-43611313D01*
X134786823Y-43611313D01*
G37*
G36*
X115736823Y-42341313D02*
G01*
X115897242Y-42389976D01*
X116029906Y-42460886D01*
X116045078Y-42468996D01*
X116174659Y-42575341D01*
X116281004Y-42704922D01*
X116281005Y-42704924D01*
X116360024Y-42852758D01*
X116408687Y-43013177D01*
X116425117Y-43180000D01*
X116408687Y-43346823D01*
X116360024Y-43507242D01*
X116310978Y-43599000D01*
X116281004Y-43655078D01*
X116174659Y-43784659D01*
X116045078Y-43891004D01*
X116045076Y-43891005D01*
X115897242Y-43970024D01*
X115736823Y-44018687D01*
X115611804Y-44031000D01*
X115528196Y-44031000D01*
X115403177Y-44018687D01*
X115242758Y-43970024D01*
X115094924Y-43891005D01*
X115094922Y-43891004D01*
X114965341Y-43784659D01*
X114858996Y-43655078D01*
X114829022Y-43599000D01*
X114779976Y-43507242D01*
X114731313Y-43346823D01*
X114714883Y-43180000D01*
X114731313Y-43013177D01*
X114779976Y-42852758D01*
X114858995Y-42704924D01*
X114858996Y-42704922D01*
X114965341Y-42575341D01*
X115094922Y-42468996D01*
X115110094Y-42460886D01*
X115242758Y-42389976D01*
X115403177Y-42341313D01*
X115528196Y-42329000D01*
X115611804Y-42329000D01*
X115736823Y-42341313D01*
X115736823Y-42341313D01*
G37*
G36*
X130976823Y-42341313D02*
G01*
X131137242Y-42389976D01*
X131269906Y-42460886D01*
X131285078Y-42468996D01*
X131414659Y-42575341D01*
X131521004Y-42704922D01*
X131521005Y-42704924D01*
X131600024Y-42852758D01*
X131648687Y-43013177D01*
X131665117Y-43180000D01*
X131648687Y-43346823D01*
X131600024Y-43507242D01*
X131550978Y-43599000D01*
X131521004Y-43655078D01*
X131414659Y-43784659D01*
X131285078Y-43891004D01*
X131285076Y-43891005D01*
X131137242Y-43970024D01*
X130976823Y-44018687D01*
X130851804Y-44031000D01*
X130768196Y-44031000D01*
X130643177Y-44018687D01*
X130482758Y-43970024D01*
X130334924Y-43891005D01*
X130334922Y-43891004D01*
X130205341Y-43784659D01*
X130098996Y-43655078D01*
X130069022Y-43599000D01*
X130019976Y-43507242D01*
X129971313Y-43346823D01*
X129954883Y-43180000D01*
X129971313Y-43013177D01*
X130019976Y-42852758D01*
X130098995Y-42704924D01*
X130098996Y-42704922D01*
X130205341Y-42575341D01*
X130334922Y-42468996D01*
X130350094Y-42460886D01*
X130482758Y-42389976D01*
X130643177Y-42341313D01*
X130768196Y-42329000D01*
X130851804Y-42329000D01*
X130976823Y-42341313D01*
X130976823Y-42341313D01*
G37*
G36*
X142406823Y-41071313D02*
G01*
X142567242Y-41119976D01*
X142699906Y-41190886D01*
X142715078Y-41198996D01*
X142844659Y-41305341D01*
X142951004Y-41434922D01*
X142951005Y-41434924D01*
X143030024Y-41582758D01*
X143078687Y-41743177D01*
X143095117Y-41910000D01*
X143078687Y-42076823D01*
X143030024Y-42237242D01*
X142980978Y-42329000D01*
X142951004Y-42385078D01*
X142844659Y-42514659D01*
X142715078Y-42621004D01*
X142715076Y-42621005D01*
X142567242Y-42700024D01*
X142406823Y-42748687D01*
X142281804Y-42761000D01*
X142198196Y-42761000D01*
X142073177Y-42748687D01*
X141912758Y-42700024D01*
X141764924Y-42621005D01*
X141764922Y-42621004D01*
X141635341Y-42514659D01*
X141528996Y-42385078D01*
X141499022Y-42329000D01*
X141449976Y-42237242D01*
X141401313Y-42076823D01*
X141384883Y-41910000D01*
X141401313Y-41743177D01*
X141449976Y-41582758D01*
X141528995Y-41434924D01*
X141528996Y-41434922D01*
X141635341Y-41305341D01*
X141764922Y-41198996D01*
X141780094Y-41190886D01*
X141912758Y-41119976D01*
X142073177Y-41071313D01*
X142198196Y-41059000D01*
X142281804Y-41059000D01*
X142406823Y-41071313D01*
X142406823Y-41071313D01*
G37*
G36*
X134786823Y-41071313D02*
G01*
X134947242Y-41119976D01*
X135079906Y-41190886D01*
X135095078Y-41198996D01*
X135224659Y-41305341D01*
X135331004Y-41434922D01*
X135331005Y-41434924D01*
X135410024Y-41582758D01*
X135458687Y-41743177D01*
X135475117Y-41910000D01*
X135458687Y-42076823D01*
X135410024Y-42237242D01*
X135360978Y-42329000D01*
X135331004Y-42385078D01*
X135224659Y-42514659D01*
X135095078Y-42621004D01*
X135095076Y-42621005D01*
X134947242Y-42700024D01*
X134786823Y-42748687D01*
X134661804Y-42761000D01*
X134578196Y-42761000D01*
X134453177Y-42748687D01*
X134292758Y-42700024D01*
X134144924Y-42621005D01*
X134144922Y-42621004D01*
X134015341Y-42514659D01*
X133908996Y-42385078D01*
X133879022Y-42329000D01*
X133829976Y-42237242D01*
X133781313Y-42076823D01*
X133764883Y-41910000D01*
X133781313Y-41743177D01*
X133829976Y-41582758D01*
X133908995Y-41434924D01*
X133908996Y-41434922D01*
X134015341Y-41305341D01*
X134144922Y-41198996D01*
X134160094Y-41190886D01*
X134292758Y-41119976D01*
X134453177Y-41071313D01*
X134578196Y-41059000D01*
X134661804Y-41059000D01*
X134786823Y-41071313D01*
X134786823Y-41071313D01*
G37*
G36*
X147486823Y-41071313D02*
G01*
X147647242Y-41119976D01*
X147779906Y-41190886D01*
X147795078Y-41198996D01*
X147924659Y-41305341D01*
X148031004Y-41434922D01*
X148031005Y-41434924D01*
X148110024Y-41582758D01*
X148158687Y-41743177D01*
X148175117Y-41910000D01*
X148158687Y-42076823D01*
X148110024Y-42237242D01*
X148060978Y-42329000D01*
X148031004Y-42385078D01*
X147924659Y-42514659D01*
X147795078Y-42621004D01*
X147795076Y-42621005D01*
X147647242Y-42700024D01*
X147486823Y-42748687D01*
X147361804Y-42761000D01*
X147278196Y-42761000D01*
X147153177Y-42748687D01*
X146992758Y-42700024D01*
X146844924Y-42621005D01*
X146844922Y-42621004D01*
X146715341Y-42514659D01*
X146608996Y-42385078D01*
X146579022Y-42329000D01*
X146529976Y-42237242D01*
X146481313Y-42076823D01*
X146464883Y-41910000D01*
X146481313Y-41743177D01*
X146529976Y-41582758D01*
X146608995Y-41434924D01*
X146608996Y-41434922D01*
X146715341Y-41305341D01*
X146844922Y-41198996D01*
X146860094Y-41190886D01*
X146992758Y-41119976D01*
X147153177Y-41071313D01*
X147278196Y-41059000D01*
X147361804Y-41059000D01*
X147486823Y-41071313D01*
X147486823Y-41071313D01*
G37*
G36*
X155106823Y-41071313D02*
G01*
X155267242Y-41119976D01*
X155399906Y-41190886D01*
X155415078Y-41198996D01*
X155544659Y-41305341D01*
X155651004Y-41434922D01*
X155651005Y-41434924D01*
X155730024Y-41582758D01*
X155778687Y-41743177D01*
X155795117Y-41910000D01*
X155778687Y-42076823D01*
X155730024Y-42237242D01*
X155680978Y-42329000D01*
X155651004Y-42385078D01*
X155544659Y-42514659D01*
X155415078Y-42621004D01*
X155415076Y-42621005D01*
X155267242Y-42700024D01*
X155106823Y-42748687D01*
X154981804Y-42761000D01*
X154898196Y-42761000D01*
X154773177Y-42748687D01*
X154612758Y-42700024D01*
X154464924Y-42621005D01*
X154464922Y-42621004D01*
X154335341Y-42514659D01*
X154228996Y-42385078D01*
X154199022Y-42329000D01*
X154149976Y-42237242D01*
X154101313Y-42076823D01*
X154084883Y-41910000D01*
X154101313Y-41743177D01*
X154149976Y-41582758D01*
X154228995Y-41434924D01*
X154228996Y-41434922D01*
X154335341Y-41305341D01*
X154464922Y-41198996D01*
X154480094Y-41190886D01*
X154612758Y-41119976D01*
X154773177Y-41071313D01*
X154898196Y-41059000D01*
X154981804Y-41059000D01*
X155106823Y-41071313D01*
X155106823Y-41071313D01*
G37*
G36*
X130976823Y-39801313D02*
G01*
X131137242Y-39849976D01*
X131269906Y-39920886D01*
X131285078Y-39928996D01*
X131414659Y-40035341D01*
X131521004Y-40164922D01*
X131521005Y-40164924D01*
X131600024Y-40312758D01*
X131648687Y-40473177D01*
X131665117Y-40640000D01*
X131648687Y-40806823D01*
X131600024Y-40967242D01*
X131550978Y-41059000D01*
X131521004Y-41115078D01*
X131414659Y-41244659D01*
X131285078Y-41351004D01*
X131285076Y-41351005D01*
X131137242Y-41430024D01*
X130976823Y-41478687D01*
X130851804Y-41491000D01*
X130768196Y-41491000D01*
X130643177Y-41478687D01*
X130482758Y-41430024D01*
X130334924Y-41351005D01*
X130334922Y-41351004D01*
X130205341Y-41244659D01*
X130098996Y-41115078D01*
X130069022Y-41059000D01*
X130019976Y-40967242D01*
X129971313Y-40806823D01*
X129954883Y-40640000D01*
X129971313Y-40473177D01*
X130019976Y-40312758D01*
X130098995Y-40164924D01*
X130098996Y-40164922D01*
X130205341Y-40035341D01*
X130334922Y-39928996D01*
X130350094Y-39920886D01*
X130482758Y-39849976D01*
X130643177Y-39801313D01*
X130768196Y-39789000D01*
X130851804Y-39789000D01*
X130976823Y-39801313D01*
X130976823Y-39801313D01*
G37*
G36*
X115736823Y-39801313D02*
G01*
X115897242Y-39849976D01*
X116029906Y-39920886D01*
X116045078Y-39928996D01*
X116174659Y-40035341D01*
X116281004Y-40164922D01*
X116281005Y-40164924D01*
X116360024Y-40312758D01*
X116408687Y-40473177D01*
X116425117Y-40640000D01*
X116408687Y-40806823D01*
X116360024Y-40967242D01*
X116310978Y-41059000D01*
X116281004Y-41115078D01*
X116174659Y-41244659D01*
X116045078Y-41351004D01*
X116045076Y-41351005D01*
X115897242Y-41430024D01*
X115736823Y-41478687D01*
X115611804Y-41491000D01*
X115528196Y-41491000D01*
X115403177Y-41478687D01*
X115242758Y-41430024D01*
X115094924Y-41351005D01*
X115094922Y-41351004D01*
X114965341Y-41244659D01*
X114858996Y-41115078D01*
X114829022Y-41059000D01*
X114779976Y-40967242D01*
X114731313Y-40806823D01*
X114714883Y-40640000D01*
X114731313Y-40473177D01*
X114779976Y-40312758D01*
X114858995Y-40164924D01*
X114858996Y-40164922D01*
X114965341Y-40035341D01*
X115094922Y-39928996D01*
X115110094Y-39920886D01*
X115242758Y-39849976D01*
X115403177Y-39801313D01*
X115528196Y-39789000D01*
X115611804Y-39789000D01*
X115736823Y-39801313D01*
X115736823Y-39801313D01*
G37*
G36*
X148171000Y-40221000D02*
G01*
X146469000Y-40221000D01*
X146469000Y-38519000D01*
X148171000Y-38519000D01*
X148171000Y-40221000D01*
X148171000Y-40221000D01*
G37*
G36*
X142406823Y-38531313D02*
G01*
X142567242Y-38579976D01*
X142699906Y-38650886D01*
X142715078Y-38658996D01*
X142844659Y-38765341D01*
X142951004Y-38894922D01*
X142951005Y-38894924D01*
X143030024Y-39042758D01*
X143078687Y-39203177D01*
X143095117Y-39370000D01*
X143078687Y-39536823D01*
X143030024Y-39697242D01*
X142980978Y-39789000D01*
X142951004Y-39845078D01*
X142844659Y-39974659D01*
X142715078Y-40081004D01*
X142715076Y-40081005D01*
X142567242Y-40160024D01*
X142406823Y-40208687D01*
X142281804Y-40221000D01*
X142198196Y-40221000D01*
X142073177Y-40208687D01*
X141912758Y-40160024D01*
X141764924Y-40081005D01*
X141764922Y-40081004D01*
X141635341Y-39974659D01*
X141528996Y-39845078D01*
X141499022Y-39789000D01*
X141449976Y-39697242D01*
X141401313Y-39536823D01*
X141384883Y-39370000D01*
X141401313Y-39203177D01*
X141449976Y-39042758D01*
X141528995Y-38894924D01*
X141528996Y-38894922D01*
X141635341Y-38765341D01*
X141764922Y-38658996D01*
X141780094Y-38650886D01*
X141912758Y-38579976D01*
X142073177Y-38531313D01*
X142198196Y-38519000D01*
X142281804Y-38519000D01*
X142406823Y-38531313D01*
X142406823Y-38531313D01*
G37*
G36*
X134786823Y-38531313D02*
G01*
X134947242Y-38579976D01*
X135079906Y-38650886D01*
X135095078Y-38658996D01*
X135224659Y-38765341D01*
X135331004Y-38894922D01*
X135331005Y-38894924D01*
X135410024Y-39042758D01*
X135458687Y-39203177D01*
X135475117Y-39370000D01*
X135458687Y-39536823D01*
X135410024Y-39697242D01*
X135360978Y-39789000D01*
X135331004Y-39845078D01*
X135224659Y-39974659D01*
X135095078Y-40081004D01*
X135095076Y-40081005D01*
X134947242Y-40160024D01*
X134786823Y-40208687D01*
X134661804Y-40221000D01*
X134578196Y-40221000D01*
X134453177Y-40208687D01*
X134292758Y-40160024D01*
X134144924Y-40081005D01*
X134144922Y-40081004D01*
X134015341Y-39974659D01*
X133908996Y-39845078D01*
X133879022Y-39789000D01*
X133829976Y-39697242D01*
X133781313Y-39536823D01*
X133764883Y-39370000D01*
X133781313Y-39203177D01*
X133829976Y-39042758D01*
X133908995Y-38894924D01*
X133908996Y-38894922D01*
X134015341Y-38765341D01*
X134144922Y-38658996D01*
X134160094Y-38650886D01*
X134292758Y-38579976D01*
X134453177Y-38531313D01*
X134578196Y-38519000D01*
X134661804Y-38519000D01*
X134786823Y-38531313D01*
X134786823Y-38531313D01*
G37*
G36*
X155106823Y-38531313D02*
G01*
X155267242Y-38579976D01*
X155399906Y-38650886D01*
X155415078Y-38658996D01*
X155544659Y-38765341D01*
X155651004Y-38894922D01*
X155651005Y-38894924D01*
X155730024Y-39042758D01*
X155778687Y-39203177D01*
X155795117Y-39370000D01*
X155778687Y-39536823D01*
X155730024Y-39697242D01*
X155680978Y-39789000D01*
X155651004Y-39845078D01*
X155544659Y-39974659D01*
X155415078Y-40081004D01*
X155415076Y-40081005D01*
X155267242Y-40160024D01*
X155106823Y-40208687D01*
X154981804Y-40221000D01*
X154898196Y-40221000D01*
X154773177Y-40208687D01*
X154612758Y-40160024D01*
X154464924Y-40081005D01*
X154464922Y-40081004D01*
X154335341Y-39974659D01*
X154228996Y-39845078D01*
X154199022Y-39789000D01*
X154149976Y-39697242D01*
X154101313Y-39536823D01*
X154084883Y-39370000D01*
X154101313Y-39203177D01*
X154149976Y-39042758D01*
X154228995Y-38894924D01*
X154228996Y-38894922D01*
X154335341Y-38765341D01*
X154464922Y-38658996D01*
X154480094Y-38650886D01*
X154612758Y-38579976D01*
X154773177Y-38531313D01*
X154898196Y-38519000D01*
X154981804Y-38519000D01*
X155106823Y-38531313D01*
X155106823Y-38531313D01*
G37*
G36*
X130976823Y-37261313D02*
G01*
X131137242Y-37309976D01*
X131269906Y-37380886D01*
X131285078Y-37388996D01*
X131414659Y-37495341D01*
X131521004Y-37624922D01*
X131521005Y-37624924D01*
X131600024Y-37772758D01*
X131648687Y-37933177D01*
X131665117Y-38100000D01*
X131648687Y-38266823D01*
X131600024Y-38427242D01*
X131550978Y-38519000D01*
X131521004Y-38575078D01*
X131414659Y-38704659D01*
X131285078Y-38811004D01*
X131285076Y-38811005D01*
X131137242Y-38890024D01*
X130976823Y-38938687D01*
X130851804Y-38951000D01*
X130768196Y-38951000D01*
X130643177Y-38938687D01*
X130482758Y-38890024D01*
X130334924Y-38811005D01*
X130334922Y-38811004D01*
X130205341Y-38704659D01*
X130098996Y-38575078D01*
X130069022Y-38519000D01*
X130019976Y-38427242D01*
X129971313Y-38266823D01*
X129954883Y-38100000D01*
X129971313Y-37933177D01*
X130019976Y-37772758D01*
X130098995Y-37624924D01*
X130098996Y-37624922D01*
X130205341Y-37495341D01*
X130334922Y-37388996D01*
X130350094Y-37380886D01*
X130482758Y-37309976D01*
X130643177Y-37261313D01*
X130768196Y-37249000D01*
X130851804Y-37249000D01*
X130976823Y-37261313D01*
X130976823Y-37261313D01*
G37*
G36*
X115736823Y-37261313D02*
G01*
X115897242Y-37309976D01*
X116029906Y-37380886D01*
X116045078Y-37388996D01*
X116174659Y-37495341D01*
X116281004Y-37624922D01*
X116281005Y-37624924D01*
X116360024Y-37772758D01*
X116408687Y-37933177D01*
X116425117Y-38100000D01*
X116408687Y-38266823D01*
X116360024Y-38427242D01*
X116310978Y-38519000D01*
X116281004Y-38575078D01*
X116174659Y-38704659D01*
X116045078Y-38811004D01*
X116045076Y-38811005D01*
X115897242Y-38890024D01*
X115736823Y-38938687D01*
X115611804Y-38951000D01*
X115528196Y-38951000D01*
X115403177Y-38938687D01*
X115242758Y-38890024D01*
X115094924Y-38811005D01*
X115094922Y-38811004D01*
X114965341Y-38704659D01*
X114858996Y-38575078D01*
X114829022Y-38519000D01*
X114779976Y-38427242D01*
X114731313Y-38266823D01*
X114714883Y-38100000D01*
X114731313Y-37933177D01*
X114779976Y-37772758D01*
X114858995Y-37624924D01*
X114858996Y-37624922D01*
X114965341Y-37495341D01*
X115094922Y-37388996D01*
X115110094Y-37380886D01*
X115242758Y-37309976D01*
X115403177Y-37261313D01*
X115528196Y-37249000D01*
X115611804Y-37249000D01*
X115736823Y-37261313D01*
X115736823Y-37261313D01*
G37*
G36*
X142406823Y-35991313D02*
G01*
X142537380Y-36030917D01*
X142563145Y-36038733D01*
X142567242Y-36039976D01*
X142699906Y-36110886D01*
X142715078Y-36118996D01*
X142844659Y-36225341D01*
X142951004Y-36354922D01*
X142951005Y-36354924D01*
X143030024Y-36502758D01*
X143078687Y-36663177D01*
X143095117Y-36830000D01*
X143078687Y-36996823D01*
X143030024Y-37157242D01*
X142980978Y-37249000D01*
X142951004Y-37305078D01*
X142844659Y-37434659D01*
X142715078Y-37541004D01*
X142715076Y-37541005D01*
X142567242Y-37620024D01*
X142406823Y-37668687D01*
X142281804Y-37681000D01*
X142198196Y-37681000D01*
X142073177Y-37668687D01*
X141912758Y-37620024D01*
X141764924Y-37541005D01*
X141764922Y-37541004D01*
X141635341Y-37434659D01*
X141528996Y-37305078D01*
X141499022Y-37249000D01*
X141449976Y-37157242D01*
X141401313Y-36996823D01*
X141384883Y-36830000D01*
X141401313Y-36663177D01*
X141449976Y-36502758D01*
X141528995Y-36354924D01*
X141528996Y-36354922D01*
X141635341Y-36225341D01*
X141764922Y-36118996D01*
X141780094Y-36110886D01*
X141912758Y-36039976D01*
X141916856Y-36038733D01*
X141942620Y-36030917D01*
X142073177Y-35991313D01*
X142198196Y-35979000D01*
X142281804Y-35979000D01*
X142406823Y-35991313D01*
X142406823Y-35991313D01*
G37*
G36*
X135471000Y-37681000D02*
G01*
X133769000Y-37681000D01*
X133769000Y-35979000D01*
X135471000Y-35979000D01*
X135471000Y-37681000D01*
X135471000Y-37681000D01*
G37*
G36*
X115736823Y-34721313D02*
G01*
X115897242Y-34769976D01*
X116024244Y-34837860D01*
X116045078Y-34848996D01*
X116174659Y-34955341D01*
X116281004Y-35084922D01*
X116281005Y-35084924D01*
X116360024Y-35232758D01*
X116408687Y-35393177D01*
X116425117Y-35560000D01*
X116408687Y-35726823D01*
X116360024Y-35887242D01*
X116310978Y-35979000D01*
X116281004Y-36035078D01*
X116174659Y-36164659D01*
X116045078Y-36271004D01*
X116045076Y-36271005D01*
X115897242Y-36350024D01*
X115736823Y-36398687D01*
X115611804Y-36411000D01*
X115528196Y-36411000D01*
X115403177Y-36398687D01*
X115242758Y-36350024D01*
X115094924Y-36271005D01*
X115094922Y-36271004D01*
X114965341Y-36164659D01*
X114858996Y-36035078D01*
X114829022Y-35979000D01*
X114779976Y-35887242D01*
X114731313Y-35726823D01*
X114714883Y-35560000D01*
X114731313Y-35393177D01*
X114779976Y-35232758D01*
X114858995Y-35084924D01*
X114858996Y-35084922D01*
X114965341Y-34955341D01*
X115094922Y-34848996D01*
X115115756Y-34837860D01*
X115242758Y-34769976D01*
X115403177Y-34721313D01*
X115528196Y-34709000D01*
X115611804Y-34709000D01*
X115736823Y-34721313D01*
X115736823Y-34721313D01*
G37*
G36*
X130976823Y-34721313D02*
G01*
X131137242Y-34769976D01*
X131264244Y-34837860D01*
X131285078Y-34848996D01*
X131414659Y-34955341D01*
X131521004Y-35084922D01*
X131521005Y-35084924D01*
X131600024Y-35232758D01*
X131648687Y-35393177D01*
X131665117Y-35560000D01*
X131648687Y-35726823D01*
X131600024Y-35887242D01*
X131550978Y-35979000D01*
X131521004Y-36035078D01*
X131414659Y-36164659D01*
X131285078Y-36271004D01*
X131285076Y-36271005D01*
X131137242Y-36350024D01*
X130976823Y-36398687D01*
X130851804Y-36411000D01*
X130768196Y-36411000D01*
X130643177Y-36398687D01*
X130482758Y-36350024D01*
X130334924Y-36271005D01*
X130334922Y-36271004D01*
X130205341Y-36164659D01*
X130098996Y-36035078D01*
X130069022Y-35979000D01*
X130019976Y-35887242D01*
X129971313Y-35726823D01*
X129954883Y-35560000D01*
X129971313Y-35393177D01*
X130019976Y-35232758D01*
X130098995Y-35084924D01*
X130098996Y-35084922D01*
X130205341Y-34955341D01*
X130334922Y-34848996D01*
X130355756Y-34837860D01*
X130482758Y-34769976D01*
X130643177Y-34721313D01*
X130768196Y-34709000D01*
X130851804Y-34709000D01*
X130976823Y-34721313D01*
X130976823Y-34721313D01*
G37*
G36*
X148809059Y-34837860D02*
G01*
X148945732Y-34894472D01*
X149068735Y-34976660D01*
X149173340Y-35081265D01*
X149255528Y-35204268D01*
X149312140Y-35340941D01*
X149341000Y-35486033D01*
X149341000Y-35633967D01*
X149312140Y-35779059D01*
X149255528Y-35915732D01*
X149173340Y-36038735D01*
X149068735Y-36143340D01*
X148945732Y-36225528D01*
X148945731Y-36225529D01*
X148945730Y-36225529D01*
X148809059Y-36282140D01*
X148663968Y-36311000D01*
X148516032Y-36311000D01*
X148370941Y-36282140D01*
X148234270Y-36225529D01*
X148234269Y-36225529D01*
X148234268Y-36225528D01*
X148111265Y-36143340D01*
X148006660Y-36038735D01*
X147924472Y-35915732D01*
X147867860Y-35779059D01*
X147839000Y-35633967D01*
X147839000Y-35486033D01*
X147867860Y-35340941D01*
X147924472Y-35204268D01*
X148006660Y-35081265D01*
X148111265Y-34976660D01*
X148234268Y-34894472D01*
X148370941Y-34837860D01*
X148516032Y-34809000D01*
X148663968Y-34809000D01*
X148809059Y-34837860D01*
X148809059Y-34837860D01*
G37*
G36*
X152648228Y-33471703D02*
G01*
X152803100Y-33535853D01*
X152942481Y-33628985D01*
X153061015Y-33747519D01*
X153154147Y-33886900D01*
X153218297Y-34041772D01*
X153251000Y-34206184D01*
X153251000Y-34373816D01*
X153218297Y-34538228D01*
X153154147Y-34693100D01*
X153061015Y-34832481D01*
X152942481Y-34951015D01*
X152803100Y-35044147D01*
X152648228Y-35108297D01*
X152483816Y-35141000D01*
X152316184Y-35141000D01*
X152151772Y-35108297D01*
X151996900Y-35044147D01*
X151857519Y-34951015D01*
X151738985Y-34832481D01*
X151645853Y-34693100D01*
X151581703Y-34538228D01*
X151549000Y-34373816D01*
X151549000Y-34206184D01*
X151581703Y-34041772D01*
X151645853Y-33886900D01*
X151738985Y-33747519D01*
X151857519Y-33628985D01*
X151996900Y-33535853D01*
X152151772Y-33471703D01*
X152316184Y-33439000D01*
X152483816Y-33439000D01*
X152648228Y-33471703D01*
X152648228Y-33471703D01*
G37*
G36*
X157648228Y-33471703D02*
G01*
X157803100Y-33535853D01*
X157942481Y-33628985D01*
X158061015Y-33747519D01*
X158154147Y-33886900D01*
X158218297Y-34041772D01*
X158251000Y-34206184D01*
X158251000Y-34373816D01*
X158218297Y-34538228D01*
X158154147Y-34693100D01*
X158061015Y-34832481D01*
X157942481Y-34951015D01*
X157803100Y-35044147D01*
X157648228Y-35108297D01*
X157483816Y-35141000D01*
X157316184Y-35141000D01*
X157151772Y-35108297D01*
X156996900Y-35044147D01*
X156857519Y-34951015D01*
X156738985Y-34832481D01*
X156645853Y-34693100D01*
X156581703Y-34538228D01*
X156549000Y-34373816D01*
X156549000Y-34206184D01*
X156581703Y-34041772D01*
X156645853Y-33886900D01*
X156738985Y-33747519D01*
X156857519Y-33628985D01*
X156996900Y-33535853D01*
X157151772Y-33471703D01*
X157316184Y-33439000D01*
X157483816Y-33439000D01*
X157648228Y-33471703D01*
X157648228Y-33471703D01*
G37*
G36*
X115736823Y-32181313D02*
G01*
X115897242Y-32229976D01*
X116029906Y-32300886D01*
X116045078Y-32308996D01*
X116174659Y-32415341D01*
X116281004Y-32544922D01*
X116281005Y-32544924D01*
X116360024Y-32692758D01*
X116408687Y-32853177D01*
X116425117Y-33020000D01*
X116408687Y-33186823D01*
X116360024Y-33347242D01*
X116319477Y-33423100D01*
X116281004Y-33495078D01*
X116174659Y-33624659D01*
X116045078Y-33731004D01*
X116045076Y-33731005D01*
X115897242Y-33810024D01*
X115736823Y-33858687D01*
X115611804Y-33871000D01*
X115528196Y-33871000D01*
X115403177Y-33858687D01*
X115242758Y-33810024D01*
X115094924Y-33731005D01*
X115094922Y-33731004D01*
X114965341Y-33624659D01*
X114858996Y-33495078D01*
X114820523Y-33423100D01*
X114779976Y-33347242D01*
X114731313Y-33186823D01*
X114714883Y-33020000D01*
X114731313Y-32853177D01*
X114779976Y-32692758D01*
X114858995Y-32544924D01*
X114858996Y-32544922D01*
X114965341Y-32415341D01*
X115094922Y-32308996D01*
X115110094Y-32300886D01*
X115242758Y-32229976D01*
X115403177Y-32181313D01*
X115528196Y-32169000D01*
X115611804Y-32169000D01*
X115736823Y-32181313D01*
X115736823Y-32181313D01*
G37*
G36*
X130976823Y-32181313D02*
G01*
X131137242Y-32229976D01*
X131269906Y-32300886D01*
X131285078Y-32308996D01*
X131414659Y-32415341D01*
X131521004Y-32544922D01*
X131521005Y-32544924D01*
X131600024Y-32692758D01*
X131648687Y-32853177D01*
X131665117Y-33020000D01*
X131648687Y-33186823D01*
X131600024Y-33347242D01*
X131559477Y-33423100D01*
X131521004Y-33495078D01*
X131414659Y-33624659D01*
X131285078Y-33731004D01*
X131285076Y-33731005D01*
X131137242Y-33810024D01*
X130976823Y-33858687D01*
X130851804Y-33871000D01*
X130768196Y-33871000D01*
X130643177Y-33858687D01*
X130482758Y-33810024D01*
X130334924Y-33731005D01*
X130334922Y-33731004D01*
X130205341Y-33624659D01*
X130098996Y-33495078D01*
X130060523Y-33423100D01*
X130019976Y-33347242D01*
X129971313Y-33186823D01*
X129954883Y-33020000D01*
X129971313Y-32853177D01*
X130019976Y-32692758D01*
X130098995Y-32544924D01*
X130098996Y-32544922D01*
X130205341Y-32415341D01*
X130334922Y-32308996D01*
X130350094Y-32300886D01*
X130482758Y-32229976D01*
X130643177Y-32181313D01*
X130768196Y-32169000D01*
X130851804Y-32169000D01*
X130976823Y-32181313D01*
X130976823Y-32181313D01*
G37*
G36*
X134868228Y-32201703D02*
G01*
X135023100Y-32265853D01*
X135162481Y-32358985D01*
X135281015Y-32477519D01*
X135374147Y-32616900D01*
X135438297Y-32771772D01*
X135471000Y-32936184D01*
X135471000Y-33103816D01*
X135438297Y-33268228D01*
X135374147Y-33423100D01*
X135281015Y-33562481D01*
X135162481Y-33681015D01*
X135023100Y-33774147D01*
X134868228Y-33838297D01*
X134703816Y-33871000D01*
X134536184Y-33871000D01*
X134371772Y-33838297D01*
X134216900Y-33774147D01*
X134077519Y-33681015D01*
X133958985Y-33562481D01*
X133865853Y-33423100D01*
X133801703Y-33268228D01*
X133769000Y-33103816D01*
X133769000Y-32936184D01*
X133801703Y-32771772D01*
X133865853Y-32616900D01*
X133958985Y-32477519D01*
X134077519Y-32358985D01*
X134216900Y-32265853D01*
X134371772Y-32201703D01*
X134536184Y-32169000D01*
X134703816Y-32169000D01*
X134868228Y-32201703D01*
X134868228Y-32201703D01*
G37*
G36*
X152648228Y-30931703D02*
G01*
X152803100Y-30995853D01*
X152942481Y-31088985D01*
X153061015Y-31207519D01*
X153154147Y-31346900D01*
X153218297Y-31501772D01*
X153251000Y-31666184D01*
X153251000Y-31833816D01*
X153218297Y-31998228D01*
X153154147Y-32153100D01*
X153061015Y-32292481D01*
X152942481Y-32411015D01*
X152803100Y-32504147D01*
X152648228Y-32568297D01*
X152483816Y-32601000D01*
X152316184Y-32601000D01*
X152151772Y-32568297D01*
X151996900Y-32504147D01*
X151857519Y-32411015D01*
X151738985Y-32292481D01*
X151645853Y-32153100D01*
X151581703Y-31998228D01*
X151549000Y-31833816D01*
X151549000Y-31666184D01*
X151581703Y-31501772D01*
X151645853Y-31346900D01*
X151738985Y-31207519D01*
X151857519Y-31088985D01*
X151996900Y-30995853D01*
X152151772Y-30931703D01*
X152316184Y-30899000D01*
X152483816Y-30899000D01*
X152648228Y-30931703D01*
X152648228Y-30931703D01*
G37*
G36*
X157648228Y-30931703D02*
G01*
X157803100Y-30995853D01*
X157942481Y-31088985D01*
X158061015Y-31207519D01*
X158154147Y-31346900D01*
X158218297Y-31501772D01*
X158251000Y-31666184D01*
X158251000Y-31833816D01*
X158218297Y-31998228D01*
X158154147Y-32153100D01*
X158061015Y-32292481D01*
X157942481Y-32411015D01*
X157803100Y-32504147D01*
X157648228Y-32568297D01*
X157483816Y-32601000D01*
X157316184Y-32601000D01*
X157151772Y-32568297D01*
X156996900Y-32504147D01*
X156857519Y-32411015D01*
X156738985Y-32292481D01*
X156645853Y-32153100D01*
X156581703Y-31998228D01*
X156549000Y-31833816D01*
X156549000Y-31666184D01*
X156581703Y-31501772D01*
X156645853Y-31346900D01*
X156738985Y-31207519D01*
X156857519Y-31088985D01*
X156996900Y-30995853D01*
X157151772Y-30931703D01*
X157316184Y-30899000D01*
X157483816Y-30899000D01*
X157648228Y-30931703D01*
X157648228Y-30931703D01*
G37*
G36*
X130976823Y-29641313D02*
G01*
X131137242Y-29689976D01*
X131264244Y-29757860D01*
X131285078Y-29768996D01*
X131414659Y-29875341D01*
X131521004Y-30004922D01*
X131521005Y-30004924D01*
X131600024Y-30152758D01*
X131648687Y-30313177D01*
X131665117Y-30480000D01*
X131648687Y-30646823D01*
X131600024Y-30807242D01*
X131533498Y-30931703D01*
X131521004Y-30955078D01*
X131414659Y-31084659D01*
X131285078Y-31191004D01*
X131285076Y-31191005D01*
X131137242Y-31270024D01*
X130976823Y-31318687D01*
X130851804Y-31331000D01*
X130768196Y-31331000D01*
X130643177Y-31318687D01*
X130482758Y-31270024D01*
X130334924Y-31191005D01*
X130334922Y-31191004D01*
X130205341Y-31084659D01*
X130098996Y-30955078D01*
X130086502Y-30931703D01*
X130019976Y-30807242D01*
X129971313Y-30646823D01*
X129954883Y-30480000D01*
X129971313Y-30313177D01*
X130019976Y-30152758D01*
X130098995Y-30004924D01*
X130098996Y-30004922D01*
X130205341Y-29875341D01*
X130334922Y-29768996D01*
X130355756Y-29757860D01*
X130482758Y-29689976D01*
X130643177Y-29641313D01*
X130768196Y-29629000D01*
X130851804Y-29629000D01*
X130976823Y-29641313D01*
X130976823Y-29641313D01*
G37*
G36*
X115736823Y-29641313D02*
G01*
X115897242Y-29689976D01*
X116024244Y-29757860D01*
X116045078Y-29768996D01*
X116174659Y-29875341D01*
X116281004Y-30004922D01*
X116281005Y-30004924D01*
X116360024Y-30152758D01*
X116408687Y-30313177D01*
X116425117Y-30480000D01*
X116408687Y-30646823D01*
X116360024Y-30807242D01*
X116293498Y-30931703D01*
X116281004Y-30955078D01*
X116174659Y-31084659D01*
X116045078Y-31191004D01*
X116045076Y-31191005D01*
X115897242Y-31270024D01*
X115736823Y-31318687D01*
X115611804Y-31331000D01*
X115528196Y-31331000D01*
X115403177Y-31318687D01*
X115242758Y-31270024D01*
X115094924Y-31191005D01*
X115094922Y-31191004D01*
X114965341Y-31084659D01*
X114858996Y-30955078D01*
X114846502Y-30931703D01*
X114779976Y-30807242D01*
X114731313Y-30646823D01*
X114714883Y-30480000D01*
X114731313Y-30313177D01*
X114779976Y-30152758D01*
X114858995Y-30004924D01*
X114858996Y-30004922D01*
X114965341Y-29875341D01*
X115094922Y-29768996D01*
X115115756Y-29757860D01*
X115242758Y-29689976D01*
X115403177Y-29641313D01*
X115528196Y-29629000D01*
X115611804Y-29629000D01*
X115736823Y-29641313D01*
X115736823Y-29641313D01*
G37*
G36*
X144999059Y-29757860D02*
G01*
X145059294Y-29782810D01*
X145135732Y-29814472D01*
X145258735Y-29896660D01*
X145363340Y-30001265D01*
X145445528Y-30124268D01*
X145502140Y-30260941D01*
X145531000Y-30406033D01*
X145531000Y-30553967D01*
X145502140Y-30699059D01*
X145445528Y-30835732D01*
X145363340Y-30958735D01*
X145258735Y-31063340D01*
X145135732Y-31145528D01*
X145135731Y-31145529D01*
X145135730Y-31145529D01*
X144999059Y-31202140D01*
X144853968Y-31231000D01*
X144706032Y-31231000D01*
X144560941Y-31202140D01*
X144424270Y-31145529D01*
X144424269Y-31145529D01*
X144424268Y-31145528D01*
X144301265Y-31063340D01*
X144196660Y-30958735D01*
X144114472Y-30835732D01*
X144057860Y-30699059D01*
X144029000Y-30553967D01*
X144029000Y-30406033D01*
X144057860Y-30260941D01*
X144114472Y-30124268D01*
X144196660Y-30001265D01*
X144301265Y-29896660D01*
X144424268Y-29814472D01*
X144500707Y-29782810D01*
X144560941Y-29757860D01*
X144706032Y-29729000D01*
X144853968Y-29729000D01*
X144999059Y-29757860D01*
X144999059Y-29757860D01*
G37*
G36*
X137233665Y-29732622D02*
G01*
X137307222Y-29739867D01*
X137448786Y-29782810D01*
X137579252Y-29852546D01*
X137607028Y-29875341D01*
X137693607Y-29946393D01*
X137760822Y-30028297D01*
X137787454Y-30060748D01*
X137857190Y-30191214D01*
X137900133Y-30332778D01*
X137914633Y-30480000D01*
X137900133Y-30627222D01*
X137857190Y-30768786D01*
X137787454Y-30899252D01*
X137763008Y-30929040D01*
X137693607Y-31013607D01*
X137633004Y-31063341D01*
X137579252Y-31107454D01*
X137448786Y-31177190D01*
X137307222Y-31220133D01*
X137233665Y-31227378D01*
X137196888Y-31231000D01*
X137123112Y-31231000D01*
X137086335Y-31227378D01*
X137012778Y-31220133D01*
X136871214Y-31177190D01*
X136740748Y-31107454D01*
X136686996Y-31063341D01*
X136626393Y-31013607D01*
X136556992Y-30929040D01*
X136532546Y-30899252D01*
X136462810Y-30768786D01*
X136419867Y-30627222D01*
X136405367Y-30480000D01*
X136419867Y-30332778D01*
X136462810Y-30191214D01*
X136532546Y-30060748D01*
X136559178Y-30028297D01*
X136626393Y-29946393D01*
X136712972Y-29875341D01*
X136740748Y-29852546D01*
X136871214Y-29782810D01*
X137012778Y-29739867D01*
X137086335Y-29732622D01*
X137123112Y-29729000D01*
X137196888Y-29729000D01*
X137233665Y-29732622D01*
X137233665Y-29732622D01*
G37*
G36*
X157648228Y-28391703D02*
G01*
X157803100Y-28455853D01*
X157942481Y-28548985D01*
X158061015Y-28667519D01*
X158154147Y-28806900D01*
X158218297Y-28961772D01*
X158251000Y-29126184D01*
X158251000Y-29293816D01*
X158218297Y-29458228D01*
X158154147Y-29613100D01*
X158061015Y-29752481D01*
X157942481Y-29871015D01*
X157803100Y-29964147D01*
X157648228Y-30028297D01*
X157483816Y-30061000D01*
X157316184Y-30061000D01*
X157151772Y-30028297D01*
X156996900Y-29964147D01*
X156857519Y-29871015D01*
X156738985Y-29752481D01*
X156645853Y-29613100D01*
X156581703Y-29458228D01*
X156549000Y-29293816D01*
X156549000Y-29126184D01*
X156581703Y-28961772D01*
X156645853Y-28806900D01*
X156738985Y-28667519D01*
X156857519Y-28548985D01*
X156996900Y-28455853D01*
X157151772Y-28391703D01*
X157316184Y-28359000D01*
X157483816Y-28359000D01*
X157648228Y-28391703D01*
X157648228Y-28391703D01*
G37*
G36*
X152648228Y-28391703D02*
G01*
X152803100Y-28455853D01*
X152942481Y-28548985D01*
X153061015Y-28667519D01*
X153154147Y-28806900D01*
X153218297Y-28961772D01*
X153251000Y-29126184D01*
X153251000Y-29293816D01*
X153218297Y-29458228D01*
X153154147Y-29613100D01*
X153061015Y-29752481D01*
X152942481Y-29871015D01*
X152803100Y-29964147D01*
X152648228Y-30028297D01*
X152483816Y-30061000D01*
X152316184Y-30061000D01*
X152151772Y-30028297D01*
X151996900Y-29964147D01*
X151857519Y-29871015D01*
X151738985Y-29752481D01*
X151645853Y-29613100D01*
X151581703Y-29458228D01*
X151549000Y-29293816D01*
X151549000Y-29126184D01*
X151581703Y-28961772D01*
X151645853Y-28806900D01*
X151738985Y-28667519D01*
X151857519Y-28548985D01*
X151996900Y-28455853D01*
X152151772Y-28391703D01*
X152316184Y-28359000D01*
X152483816Y-28359000D01*
X152648228Y-28391703D01*
X152648228Y-28391703D01*
G37*
G36*
X134868228Y-27201703D02*
G01*
X135023100Y-27265853D01*
X135162481Y-27358985D01*
X135281015Y-27477519D01*
X135374147Y-27616900D01*
X135438297Y-27771772D01*
X135471000Y-27936184D01*
X135471000Y-28103816D01*
X135438297Y-28268228D01*
X135374147Y-28423100D01*
X135281015Y-28562481D01*
X135162481Y-28681015D01*
X135023100Y-28774147D01*
X134868228Y-28838297D01*
X134703816Y-28871000D01*
X134536184Y-28871000D01*
X134371772Y-28838297D01*
X134216900Y-28774147D01*
X134077519Y-28681015D01*
X133958985Y-28562481D01*
X133865853Y-28423100D01*
X133801703Y-28268228D01*
X133769000Y-28103816D01*
X133769000Y-27936184D01*
X133801703Y-27771772D01*
X133865853Y-27616900D01*
X133958985Y-27477519D01*
X134077519Y-27358985D01*
X134216900Y-27265853D01*
X134371772Y-27201703D01*
X134536184Y-27169000D01*
X134703816Y-27169000D01*
X134868228Y-27201703D01*
X134868228Y-27201703D01*
G37*
G36*
X130976823Y-27101313D02*
G01*
X131137242Y-27149976D01*
X131230581Y-27199867D01*
X131285078Y-27228996D01*
X131414659Y-27335341D01*
X131521004Y-27464922D01*
X131521005Y-27464924D01*
X131600024Y-27612758D01*
X131600025Y-27612761D01*
X131601281Y-27616903D01*
X131648687Y-27773177D01*
X131665117Y-27940000D01*
X131648687Y-28106823D01*
X131600024Y-28267242D01*
X131533498Y-28391703D01*
X131521004Y-28415078D01*
X131414659Y-28544659D01*
X131285078Y-28651004D01*
X131285076Y-28651005D01*
X131137242Y-28730024D01*
X130976823Y-28778687D01*
X130851804Y-28791000D01*
X130768196Y-28791000D01*
X130643177Y-28778687D01*
X130482758Y-28730024D01*
X130334924Y-28651005D01*
X130334922Y-28651004D01*
X130205341Y-28544659D01*
X130098996Y-28415078D01*
X130086502Y-28391703D01*
X130019976Y-28267242D01*
X129971313Y-28106823D01*
X129954883Y-27940000D01*
X129971313Y-27773177D01*
X130018719Y-27616903D01*
X130019975Y-27612761D01*
X130019976Y-27612758D01*
X130098995Y-27464924D01*
X130098996Y-27464922D01*
X130205341Y-27335341D01*
X130334922Y-27228996D01*
X130389419Y-27199867D01*
X130482758Y-27149976D01*
X130643177Y-27101313D01*
X130768196Y-27089000D01*
X130851804Y-27089000D01*
X130976823Y-27101313D01*
X130976823Y-27101313D01*
G37*
G36*
X115736823Y-27101313D02*
G01*
X115897242Y-27149976D01*
X115990581Y-27199867D01*
X116045078Y-27228996D01*
X116174659Y-27335341D01*
X116281004Y-27464922D01*
X116281005Y-27464924D01*
X116360024Y-27612758D01*
X116360025Y-27612761D01*
X116361281Y-27616903D01*
X116408687Y-27773177D01*
X116425117Y-27940000D01*
X116408687Y-28106823D01*
X116360024Y-28267242D01*
X116293498Y-28391703D01*
X116281004Y-28415078D01*
X116174659Y-28544659D01*
X116045078Y-28651004D01*
X116045076Y-28651005D01*
X115897242Y-28730024D01*
X115736823Y-28778687D01*
X115611804Y-28791000D01*
X115528196Y-28791000D01*
X115403177Y-28778687D01*
X115242758Y-28730024D01*
X115094924Y-28651005D01*
X115094922Y-28651004D01*
X114965341Y-28544659D01*
X114858996Y-28415078D01*
X114846502Y-28391703D01*
X114779976Y-28267242D01*
X114731313Y-28106823D01*
X114714883Y-27940000D01*
X114731313Y-27773177D01*
X114778719Y-27616903D01*
X114779975Y-27612761D01*
X114779976Y-27612758D01*
X114858995Y-27464924D01*
X114858996Y-27464922D01*
X114965341Y-27335341D01*
X115094922Y-27228996D01*
X115149419Y-27199867D01*
X115242758Y-27149976D01*
X115403177Y-27101313D01*
X115528196Y-27089000D01*
X115611804Y-27089000D01*
X115736823Y-27101313D01*
X115736823Y-27101313D01*
G37*
G36*
X148663665Y-27192622D02*
G01*
X148737222Y-27199867D01*
X148878786Y-27242810D01*
X149009252Y-27312546D01*
X149037028Y-27335341D01*
X149123607Y-27406393D01*
X149181977Y-27477519D01*
X149217454Y-27520748D01*
X149287190Y-27651214D01*
X149330133Y-27792778D01*
X149344633Y-27940000D01*
X149330133Y-28087222D01*
X149287190Y-28228786D01*
X149217454Y-28359252D01*
X149193008Y-28389040D01*
X149123607Y-28473607D01*
X149039040Y-28543008D01*
X149009252Y-28567454D01*
X148878786Y-28637190D01*
X148737222Y-28680133D01*
X148663665Y-28687378D01*
X148626888Y-28691000D01*
X148553112Y-28691000D01*
X148516335Y-28687378D01*
X148442778Y-28680133D01*
X148301214Y-28637190D01*
X148170748Y-28567454D01*
X148140960Y-28543008D01*
X148056393Y-28473607D01*
X147986992Y-28389040D01*
X147962546Y-28359252D01*
X147892810Y-28228786D01*
X147849867Y-28087222D01*
X147835367Y-27940000D01*
X147849867Y-27792778D01*
X147892810Y-27651214D01*
X147962546Y-27520748D01*
X147998023Y-27477519D01*
X148056393Y-27406393D01*
X148142972Y-27335341D01*
X148170748Y-27312546D01*
X148301214Y-27242810D01*
X148442778Y-27199867D01*
X148516335Y-27192622D01*
X148553112Y-27189000D01*
X148626888Y-27189000D01*
X148663665Y-27192622D01*
X148663665Y-27192622D01*
G37*
G36*
X130976823Y-24561313D02*
G01*
X131137242Y-24609976D01*
X131269906Y-24680886D01*
X131285078Y-24688996D01*
X131414659Y-24795341D01*
X131521004Y-24924922D01*
X131521005Y-24924924D01*
X131600024Y-25072758D01*
X131648687Y-25233177D01*
X131665117Y-25400000D01*
X131648687Y-25566823D01*
X131600024Y-25727242D01*
X131529114Y-25859906D01*
X131521004Y-25875078D01*
X131414659Y-26004659D01*
X131285078Y-26111004D01*
X131285076Y-26111005D01*
X131137242Y-26190024D01*
X130976823Y-26238687D01*
X130851804Y-26251000D01*
X130768196Y-26251000D01*
X130643177Y-26238687D01*
X130482758Y-26190024D01*
X130334924Y-26111005D01*
X130334922Y-26111004D01*
X130205341Y-26004659D01*
X130098996Y-25875078D01*
X130090886Y-25859906D01*
X130019976Y-25727242D01*
X129971313Y-25566823D01*
X129954883Y-25400000D01*
X129971313Y-25233177D01*
X130019976Y-25072758D01*
X130098995Y-24924924D01*
X130098996Y-24924922D01*
X130205341Y-24795341D01*
X130334922Y-24688996D01*
X130350094Y-24680886D01*
X130482758Y-24609976D01*
X130643177Y-24561313D01*
X130768196Y-24549000D01*
X130851804Y-24549000D01*
X130976823Y-24561313D01*
X130976823Y-24561313D01*
G37*
G36*
X116421000Y-26251000D02*
G01*
X114719000Y-26251000D01*
X114719000Y-24549000D01*
X116421000Y-24549000D01*
X116421000Y-26251000D01*
X116421000Y-26251000D01*
G37*
G36*
X141176031Y-20054207D02*
G01*
X141374145Y-20114305D01*
X141374148Y-20114306D01*
X141440030Y-20149521D01*
X141556729Y-20211897D01*
X141716765Y-20343235D01*
X141848103Y-20503271D01*
X141848104Y-20503273D01*
X141945694Y-20685851D01*
X141945694Y-20685852D01*
X141945695Y-20685854D01*
X142005793Y-20883968D01*
X142021000Y-21038370D01*
X142021000Y-22141630D01*
X142005793Y-22296032D01*
X141945695Y-22494146D01*
X141945694Y-22494149D01*
X141893939Y-22590975D01*
X141848103Y-22676729D01*
X141716765Y-22836765D01*
X141556729Y-22968103D01*
X141470975Y-23013939D01*
X141374149Y-23065694D01*
X141374146Y-23065695D01*
X141176032Y-23125793D01*
X140970000Y-23146085D01*
X140763969Y-23125793D01*
X140565855Y-23065695D01*
X140565852Y-23065694D01*
X140469026Y-23013939D01*
X140383272Y-22968103D01*
X140223236Y-22836765D01*
X140091898Y-22676729D01*
X140069184Y-22634235D01*
X139994305Y-22494147D01*
X139934207Y-22296030D01*
X139919000Y-22141631D01*
X139919000Y-21038370D01*
X139934207Y-20883971D01*
X139934207Y-20883969D01*
X139994305Y-20685855D01*
X139994306Y-20685852D01*
X140029521Y-20619970D01*
X140091897Y-20503271D01*
X140223235Y-20343235D01*
X140383271Y-20211897D01*
X140469025Y-20166061D01*
X140565851Y-20114306D01*
X140565854Y-20114305D01*
X140763968Y-20054207D01*
X140970000Y-20033915D01*
X141176031Y-20054207D01*
X141176031Y-20054207D01*
G37*
G36*
X148796031Y-20054207D02*
G01*
X148994145Y-20114305D01*
X148994148Y-20114306D01*
X149060030Y-20149521D01*
X149176729Y-20211897D01*
X149336765Y-20343235D01*
X149468103Y-20503271D01*
X149468104Y-20503273D01*
X149565694Y-20685851D01*
X149565694Y-20685852D01*
X149565695Y-20685854D01*
X149625793Y-20883968D01*
X149641000Y-21038370D01*
X149641000Y-22141630D01*
X149625793Y-22296032D01*
X149565695Y-22494146D01*
X149565694Y-22494149D01*
X149513939Y-22590975D01*
X149468103Y-22676729D01*
X149336765Y-22836765D01*
X149176729Y-22968103D01*
X149090975Y-23013939D01*
X148994149Y-23065694D01*
X148994146Y-23065695D01*
X148796032Y-23125793D01*
X148590000Y-23146085D01*
X148383969Y-23125793D01*
X148185855Y-23065695D01*
X148185852Y-23065694D01*
X148089026Y-23013939D01*
X148003272Y-22968103D01*
X147843236Y-22836765D01*
X147711898Y-22676729D01*
X147689184Y-22634234D01*
X147614305Y-22494147D01*
X147554207Y-22296030D01*
X147539000Y-22141631D01*
X147539000Y-21038370D01*
X147554207Y-20883971D01*
X147554207Y-20883969D01*
X147614305Y-20685855D01*
X147614306Y-20685852D01*
X147649521Y-20619970D01*
X147711897Y-20503271D01*
X147843235Y-20343235D01*
X148003271Y-20211897D01*
X148089025Y-20166061D01*
X148185851Y-20114306D01*
X148185854Y-20114305D01*
X148383968Y-20054207D01*
X148590000Y-20033915D01*
X148796031Y-20054207D01*
X148796031Y-20054207D01*
G37*
G36*
X151336031Y-20054207D02*
G01*
X151534145Y-20114305D01*
X151534148Y-20114306D01*
X151600030Y-20149521D01*
X151716729Y-20211897D01*
X151876765Y-20343235D01*
X152008103Y-20503271D01*
X152008104Y-20503273D01*
X152105694Y-20685851D01*
X152105694Y-20685852D01*
X152105695Y-20685854D01*
X152165793Y-20883968D01*
X152181000Y-21038370D01*
X152181000Y-22141630D01*
X152165793Y-22296032D01*
X152105695Y-22494146D01*
X152105694Y-22494149D01*
X152053939Y-22590975D01*
X152008103Y-22676729D01*
X151876765Y-22836765D01*
X151716729Y-22968103D01*
X151630975Y-23013939D01*
X151534149Y-23065694D01*
X151534146Y-23065695D01*
X151336032Y-23125793D01*
X151130000Y-23146085D01*
X150923969Y-23125793D01*
X150725855Y-23065695D01*
X150725852Y-23065694D01*
X150629026Y-23013939D01*
X150543272Y-22968103D01*
X150383236Y-22836765D01*
X150251898Y-22676729D01*
X150229184Y-22634234D01*
X150154305Y-22494147D01*
X150094207Y-22296030D01*
X150079000Y-22141631D01*
X150079000Y-21038370D01*
X150094207Y-20883971D01*
X150094207Y-20883969D01*
X150154305Y-20685855D01*
X150154306Y-20685852D01*
X150189521Y-20619970D01*
X150251897Y-20503271D01*
X150383235Y-20343235D01*
X150543271Y-20211897D01*
X150629025Y-20166061D01*
X150725851Y-20114306D01*
X150725854Y-20114305D01*
X150923968Y-20054207D01*
X151130000Y-20033915D01*
X151336031Y-20054207D01*
X151336031Y-20054207D01*
G37*
G36*
X136941000Y-23141000D02*
G01*
X134839000Y-23141000D01*
X134839000Y-20039000D01*
X136941000Y-20039000D01*
X136941000Y-23141000D01*
X136941000Y-23141000D01*
G37*
M02*
