EESchema Schematic File Version 4
EELAYER 30 0
EELAYER END
$Descr User 7874 4016
encoding utf-8
Sheet 1 1
Title ""
Date ""
Rev ""
Comp ""
Comment1 ""
Comment2 ""
Comment3 ""
Comment4 ""
$EndDescr
Wire Wire Line
	2450 1750 2250 1750
Text Label 2450 1750 0    10   ~ 0
GND
Wire Wire Line
	2900 2800 2700 2800
Text Label 3400 2500 0    10   ~ 0
+5V
Text Label 500  2650 2    10   ~ 0
+5V
Wire Wire Line
	4300 2800 4500 2800
Wire Wire Line
	4500 2800 4500 2900
Text Label 4300 2800 0    10   ~ 0
GND_EXT
Wire Wire Line
	3450 1750 3550 1750
Wire Wire Line
	4650 1950 4250 1950
Wire Wire Line
	4250 1950 3850 1950
Wire Wire Line
	3850 1950 3550 1950
Wire Wire Line
	3550 1950 3550 1750
Wire Wire Line
	3850 1750 3850 1950
Wire Wire Line
	4650 1750 4650 1950
Wire Wire Line
	4250 1950 4250 1750
Connection ~ 3850 1950
Connection ~ 4250 1950
Text Label 3450 1750 0    10   ~ 0
GND_EXT
Wire Wire Line
	3450 1550 3550 1550
Wire Wire Line
	3550 1550 3550 1350
Wire Wire Line
	3550 1350 3850 1350
Wire Wire Line
	3850 1350 3850 1250
Wire Wire Line
	4250 1350 3850 1350
Wire Wire Line
	3850 1450 3850 1350
Wire Wire Line
	4250 1450 4250 1350
Wire Wire Line
	4250 1350 4650 1350
Wire Wire Line
	4650 1450 4650 1350
Connection ~ 3850 1350
Connection ~ 4250 1350
Text Label 3450 1550 0    10   ~ 0
+5V_EXT
Text Label 4300 2500 0    10   ~ 0
+5V_EXT
Wire Wire Line
	3300 2800 3400 2800
Wire Wire Line
	4300 2700 5200 2700
Wire Wire Line
	5200 2700 5200 2500
Wire Wire Line
	5200 2500 5300 2500
Connection ~ 5200 2500
$Comp
L pcb-eagle-import:C7.5_3 C2
U 1 1 69098DAB
P 3850 1550
F 0 "C2" H 3910 1565 59  0000 L BNN
F 1 "100n" H 3910 1365 59  0000 L BNN
F 2 "Capacitor_THT:C_Disc_D8.0mm_W5.0mm_P10.00mm" H 3850 1550 50  0001 C CNN
F 3 "" H 3850 1550 50  0001 C CNN
	1    3850 1550
	1    0    0    -1  
$EndComp
$Comp
L pcb-eagle-import:R-EU_0207_10 R4
U 1 1 3D78F112
P 3100 2800
F 0 "R4" H 2950 2859 59  0000 L BNN
F 1 "470" H 2950 2670 59  0000 L BNN
F 2 "Resistor_THT:R_Axial_DIN0204_L3.6mm_D1.6mm_P7.62mm_Horizontal" H 3100 2800 50  0001 C CNN
F 3 "" H 3100 2800 50  0001 C CNN
	1    3100 2800
	1    0    0    -1  
$EndComp
$Comp
L pcb-eagle-import:R-EU_0207_10 R8
U 1 1 B301094E
P 5000 2500
F 0 "R8" H 4850 2559 59  0000 L BNN
F 1 "4,7k" H 4850 2370 59  0000 L BNN
F 2 "Resistor_THT:R_Axial_DIN0204_L3.6mm_D1.6mm_P7.62mm_Horizontal" H 5000 2500 50  0001 C CNN
F 3 "" H 5000 2500 50  0001 C CNN
	1    5000 2500
	1    0    0    -1  
$EndComp
$Comp
L pcb-eagle-import:C7.5_3 C3
U 1 1 0AE61553
P 4250 1550
F 0 "C3" H 4310 1565 59  0000 L BNN
F 1 "100n" H 4310 1365 59  0000 L BNN
F 2 "Capacitor_THT:C_Disc_D8.0mm_W5.0mm_P10.00mm" H 4250 1550 50  0001 C CNN
F 3 "" H 4250 1550 50  0001 C CNN
	1    4250 1550
	1    0    0    -1  
$EndComp
$Comp
L pcb-eagle-import:C7.5_3 C4
U 1 1 284EA6E9
P 4650 1550
F 0 "C4" H 4710 1565 59  0000 L BNN
F 1 "100n" H 4710 1365 59  0000 L BNN
F 2 "Capacitor_THT:C_Disc_D8.0mm_W5.0mm_P10.00mm" H 4650 1550 50  0001 C CNN
F 3 "" H 4650 1550 50  0001 C CNN
	1    4650 1550
	1    0    0    -1  
$EndComp
Wire Wire Line
	5300 1650 5300 2500
Wire Wire Line
	5300 1650 5600 1650
$Comp
L Device:R R1
U 1 1 5DE21E9A
P 5500 1350
F 0 "R1" V 5293 1350 50  0000 C CNN
F 1 "100Ω" V 5384 1350 50  0000 C CNN
F 2 "Resistor_THT:R_Axial_DIN0204_L3.6mm_D1.6mm_P7.62mm_Horizontal" V 5430 1350 50  0001 C CNN
F 3 "~" H 5500 1350 50  0001 C CNN
	1    5500 1350
	0    1    1    0   
$EndComp
Wire Wire Line
	5350 1350 5350 1400
Wire Wire Line
	5350 1450 5600 1450
Wire Wire Line
	5250 1400 5350 1400
Connection ~ 5350 1400
Wire Wire Line
	5350 1400 5350 1450
$Comp
L pcb-eagle-import:C5_3 C1
U 1 1 218CB388
P 500 2350
F 0 "C1" H 560 2365 59  0000 L BNN
F 1 "100n" H 560 2165 59  0000 L BNN
F 2 "Capacitor_THT:C_Disc_D4.3mm_W1.9mm_P5.00mm" H 500 2350 50  0001 C CNN
F 3 "" H 500 2350 50  0001 C CNN
	1    500  2350
	-1   0    0    1   
$EndComp
Wire Wire Line
	500  1950 500  2050
Wire Wire Line
	500  2450 500  2550
Wire Wire Line
	700  1050 700  2050
Wire Wire Line
	700  2050 500  2050
Connection ~ 500  2050
Wire Wire Line
	500  2050 500  2150
Wire Wire Line
	1150 3050 800  3050
Wire Wire Line
	800  3050 800  2550
Wire Wire Line
	800  2550 500  2550
Connection ~ 500  2550
Wire Wire Line
	500  2550 500  2650
Wire Wire Line
	1850 2350 2700 2350
Wire Wire Line
	2700 2350 2700 2800
Wire Wire Line
	1250 1050 700  1050
Wire Wire Line
	1350 1050 1250 1050
Connection ~ 1250 1050
$Comp
L MCU_Module:Arduino_Nano_v3.x A1
U 1 1 5DE3541B
P 1350 2050
F 0 "A1" H 1350 869 50  0000 C CNN
F 1 "Arduino_Nano_v3.x" H 1350 960 50  0000 C CNN
F 2 "Module:Arduino_Nano" H 1500 1100 50  0001 L CNN
F 3 "http://www.mouser.com/pdfdocs/Gravitech_Arduino_Nano3_0.pdf" H 1350 1050 50  0001 C CNN
	1    1350 2050
	-1   0    0    1   
$EndComp
$Comp
L Connector:XLR3 J1
U 1 1 5DE6CFB6
P 7000 1500
F 0 "J1" H 7000 1650 50  0000 C CNN
F 1 "XLR3" H 7000 1550 50  0000 C CNN
F 2 "Connector_PinHeader_2.00mm:PinHeader_1x03_P2.00mm_Vertical" H 7000 1500 50  0001 C CNN
F 3 " ~" H 7000 1500 50  0001 C CNN
	1    7000 1500
	1    0    0    -1  
$EndComp
Wire Wire Line
	7000 1800 6450 1800
Wire Wire Line
	6450 1800 6450 1650
$Comp
L Interface_UART:MAX485E U1
U 1 1 5DE0C155
P 6000 1450
F 0 "U1" H 5800 2050 50  0000 C CNN
F 1 "MAX485" H 5800 1950 50  0000 C CNN
F 2 "Package_DIP:DIP-8_W7.62mm_Socket" H 6000 750 50  0001 C CNN
F 3 "https://datasheets.maximintegrated.com/en/ds/MAX1487E-MAX491E.pdf" H 6000 1500 50  0001 C CNN
	1    6000 1450
	1    0    0    -1  
$EndComp
$Comp
L pcb-eagle-import:NME DC1
U 1 1 5DE7C7CD
P 2950 1650
F 0 "DC1" H 2950 2036 59  0000 C CNN
F 1 "NME" H 2950 1931 59  0000 C CNN
F 2 "Package_SIP:SIP4_Sharp-SSR_P7.62mm_Straight" H 2950 1650 50  0001 C CNN
F 3 "" H 2950 1650 50  0001 C CNN
	1    2950 1650
	1    0    0    -1  
$EndComp
$Comp
L pcb-eagle-import:6N137 OK1
U 1 1 5DE81A9E
P 3900 2700
F 0 "OK1" H 3850 3186 59  0000 C CNN
F 1 "6N137" H 3850 3081 59  0000 C CNN
F 2 "Package_DIP:DIP-8_W7.62mm_Socket" H 3900 2700 50  0001 C CNN
F 3 "" H 3900 2700 50  0001 C CNN
	1    3900 2700
	1    0    0    -1  
$EndComp
Wire Wire Line
	7300 1500 7300 1200
Wire Wire Line
	7300 1200 6450 1200
Wire Wire Line
	6450 1200 6450 1350
$Comp
L power:Earth_Protective #PWR0101
U 1 1 5DEA1929
P 2250 1850
F 0 "#PWR0101" H 2500 1600 50  0001 C CNN
F 1 "Earth_Protective" H 2700 1700 50  0001 C CNN
F 2 "" H 2250 1750 50  0001 C CNN
F 3 "~" H 2250 1750 50  0001 C CNN
	1    2250 1850
	1    0    0    -1  
$EndComp
Wire Wire Line
	2250 1750 2250 1850
$Comp
L power:Earth_Protective #PWR0102
U 1 1 5DEAA653
P 500 1950
F 0 "#PWR0102" H 750 1700 50  0001 C CNN
F 1 "Earth_Protective" H 950 1800 50  0001 C CNN
F 2 "" H 500 1850 50  0001 C CNN
F 3 "~" H 500 1850 50  0001 C CNN
	1    500  1950
	-1   0    0    1   
$EndComp
$Comp
L power:+5V #PWR0103
U 1 1 5DEAF4F4
P 2250 1450
F 0 "#PWR0103" H 2250 1300 50  0001 C CNN
F 1 "+5V" H 2265 1623 50  0000 C CNN
F 2 "" H 2250 1450 50  0001 C CNN
F 3 "" H 2250 1450 50  0001 C CNN
	1    2250 1450
	1    0    0    -1  
$EndComp
Wire Wire Line
	2250 1450 2250 1550
Wire Wire Line
	2250 1550 2450 1550
$Comp
L power:+5V #PWR0104
U 1 1 5DEB5A2F
P 500 2650
F 0 "#PWR0104" H 500 2500 50  0001 C CNN
F 1 "+5V" H 515 2823 50  0000 C CNN
F 2 "" H 500 2650 50  0001 C CNN
F 3 "" H 500 2650 50  0001 C CNN
	1    500  2650
	-1   0    0    1   
$EndComp
$Comp
L power:+5V #PWR0105
U 1 1 5DEB7F99
P 3150 2350
F 0 "#PWR0105" H 3150 2200 50  0001 C CNN
F 1 "+5V" H 3165 2523 50  0000 C CNN
F 2 "" H 3150 2350 50  0001 C CNN
F 3 "" H 3150 2350 50  0001 C CNN
	1    3150 2350
	1    0    0    -1  
$EndComp
Wire Wire Line
	3400 2500 3150 2500
Wire Wire Line
	3150 2500 3150 2350
$Comp
L power:+5VA #PWR0106
U 1 1 5DEBBB1E
P 4600 2350
F 0 "#PWR0106" H 4600 2200 50  0001 C CNN
F 1 "+5VA" H 4615 2523 50  0000 C CNN
F 2 "" H 4600 2350 50  0001 C CNN
F 3 "" H 4600 2350 50  0001 C CNN
	1    4600 2350
	1    0    0    -1  
$EndComp
Wire Wire Line
	4300 2500 4600 2500
Wire Wire Line
	4600 2350 4600 2500
Connection ~ 4600 2500
Wire Wire Line
	4600 2500 4800 2500
$Comp
L power:+5VA #PWR0107
U 1 1 5DEC24A0
P 5400 1550
F 0 "#PWR0107" H 5400 1400 50  0001 C CNN
F 1 "+5VA" H 5415 1723 50  0000 C CNN
F 2 "" H 5400 1550 50  0001 C CNN
F 3 "" H 5400 1550 50  0001 C CNN
	1    5400 1550
	0    -1   -1   0   
$EndComp
Wire Wire Line
	5400 1550 5600 1550
$Comp
L power:+5VA #PWR0108
U 1 1 5DEC7C0C
P 6000 950
F 0 "#PWR0108" H 6000 800 50  0001 C CNN
F 1 "+5VA" H 6015 1123 50  0000 C CNN
F 2 "" H 6000 950 50  0001 C CNN
F 3 "" H 6000 950 50  0001 C CNN
	1    6000 950 
	1    0    0    -1  
$EndComp
$Comp
L power:+5VA #PWR0109
U 1 1 5DECF7B8
P 3850 1250
F 0 "#PWR0109" H 3850 1100 50  0001 C CNN
F 1 "+5VA" H 3865 1423 50  0000 C CNN
F 2 "" H 3850 1250 50  0001 C CNN
F 3 "" H 3850 1250 50  0001 C CNN
	1    3850 1250
	1    0    0    -1  
$EndComp
$Comp
L power:Earth #PWR0110
U 1 1 5DED087E
P 3850 1950
F 0 "#PWR0110" H 3850 1700 50  0001 C CNN
F 1 "Earth" H 3850 1800 50  0001 C CNN
F 2 "" H 3850 1950 50  0001 C CNN
F 3 "~" H 3850 1950 50  0001 C CNN
	1    3850 1950
	1    0    0    -1  
$EndComp
$Comp
L power:Earth #PWR0111
U 1 1 5DED1601
P 6000 2050
F 0 "#PWR0111" H 6000 1800 50  0001 C CNN
F 1 "Earth" H 6000 1900 50  0001 C CNN
F 2 "" H 6000 2050 50  0001 C CNN
F 3 "~" H 6000 2050 50  0001 C CNN
	1    6000 2050
	1    0    0    -1  
$EndComp
$Comp
L power:Earth #PWR0112
U 1 1 5DED259A
P 4500 2900
F 0 "#PWR0112" H 4500 2650 50  0001 C CNN
F 1 "Earth" H 4500 2750 50  0001 C CNN
F 2 "" H 4500 2900 50  0001 C CNN
F 3 "~" H 4500 2900 50  0001 C CNN
	1    4500 2900
	1    0    0    -1  
$EndComp
$Comp
L power:Earth #PWR0113
U 1 1 5DEDC28F
P 6700 1500
F 0 "#PWR0113" H 6700 1250 50  0001 C CNN
F 1 "Earth" H 6700 1350 50  0001 C CNN
F 2 "" H 6700 1500 50  0001 C CNN
F 3 "~" H 6700 1500 50  0001 C CNN
	1    6700 1500
	1    0    0    -1  
$EndComp
$Comp
L power:Earth #PWR0114
U 1 1 5DEDCC2E
P 5250 1400
F 0 "#PWR0114" H 5250 1150 50  0001 C CNN
F 1 "Earth" H 5250 1250 50  0001 C CNN
F 2 "" H 5250 1400 50  0001 C CNN
F 3 "~" H 5250 1400 50  0001 C CNN
	1    5250 1400
	0    1    1    0   
$EndComp
Connection ~ 5600 1450
Wire Wire Line
	5600 1450 5650 1450
Connection ~ 5600 1550
Wire Wire Line
	5600 1550 5650 1550
Connection ~ 5600 1650
Wire Wire Line
	5600 1650 5650 1650
$EndSCHEMATC
